Quartus/hw7/simulation/qsim/hw7.msim.vcd
$comment
	File created using the following command:
		vcd file hw7.msim.vcd -direction
$end
$date
	Fri Feb 21 08:41:29 2025
$end
$version
	ModelSim Version 10.5b
$end
$timescale
	1ps
$end

$scope module hw7_vlg_vec_tst $end
$var reg 1 ! R $end
$var reg 1 " R_L $end
$var reg 1 # S $end
$var reg 1 $ S_L $end
$var wire 1 % Q_NAND $end
$var wire 1 & Q_NOR $end

$scope module i1 $end
$var wire 1 ' gnd $end
$var wire 1 ( vcc $end
$var wire 1 ) unknown $end
$var tri1 1 * devclrn $end
$var tri1 1 + devpor $end
$var tri1 1 , devoe $end
$var wire 1 - ~QUARTUS_CREATED_GND~I_combout $end
$var wire 1 . ~QUARTUS_CREATED_UNVM~~busy $end
$var wire 1 / ~QUARTUS_CREATED_ADC1~~eoc $end
$var wire 1 0 ~QUARTUS_CREATED_ADC2~~eoc $end
$var wire 1 1 Q_NAND~output_o $end
$var wire 1 2 Q_NOR~output_o $end
$var wire 1 3 R_L~input_o $end
$var wire 1 4 S_L~input_o $end
$var wire 1 5 inst~1_combout $end
$var wire 1 6 S~input_o $end
$var wire 1 7 R~input_o $end
$var wire 1 8 inst3~combout $end
$upscope $end
$upscope $end
$enddefinitions $end
#0
$dumpvars
0!
0"
0#
0$
1%
x&
0'
1(
x)
1*
1+
1,
0-
z.
z/
z0
11
x2
03
04
05
06
07
x8
$end
#25000
1$
1#
16
14
08
15
01
12
1&
0%
#50000
1"
1!
0$
0#
06
04
17
13
18
05
11
02
0&
1%
#75000
1$
1#
16
14
#100000
0"
0!
0$
0#
06
04
07
03
#125000
1$
1#
16
14
08
15
01
12
1&
0%
#150000
1"
1!
0$
0#
06
04
17
13
18
05
11
02
0&
1%
#175000
1$
1#
16
14
#200000
0"
0!
0$
0#
06
04
07
03
#225000
1$
1#
16
14
08
15
01
12
1&
0%
#250000
1"
1!
0$
0#
06
04
17
13
18
05
11
02
0&
1%
#275000
1$
1#
16
14
#300000
0"
0!
0$
0#
06
04
07
03
#325000
1$
1#
16
14
08
15
01
12
1&
0%
#350000
1"
1!
0$
0#
06
04
17
13
18
05
11
02
0&
1%
#375000
1$
1#
16
14
#400000
0"
0!
0$
0#
06
04
07
03
#425000
1$
1#
16
14
08
15
01
12
1&
0%
#450000
1"
1!
0$
0#
06
04
17
13
18
05
11
02
0&
1%
#475000
1$
1#
16
14
#500000
0"
0!
0$
0#
06
04
07
03
#525000
1$
1#
16
14
08
15
01
12
1&
0%
#550000
1"
1!
0$
0#
06
04
17
13
18
05
11
02
0&
1%
#575000
1$
1#
16
14
#600000
0"
0!
0$
0#
06
04
07
03
#625000
1$
1#
16
14
08
15
01
12
1&
0%
#650000
1"
1!
0$
0#
06
04
17
13
18
05
11
02
0&
1%
#675000
1$
1#
16
14
#700000
0"
0!
0$
0#
06
04
07
03
#725000
1$
1#
16
14
08
15
01
12
1&
0%
#750000
1"
1!
0$
0#
06
04
17
13
18
05
11
02
0&
1%
#775000
1$
1#
16
14
#800000
0"
0!
0$
0#
06
04
07
03
#825000
1$
1#
16
14
08
15
01
12
1&
0%
#850000
1"
1!
0$
0#
06
04
17
13
18
05
11
02
0&
1%
#875000
1$
1#
16
14
#900000
0"
0!
0$
0#
06
04
07
03
#925000
1$
1#
16
14
08
15
01
12
1&
0%
#950000
1"
1!
0$
0#
06
04
17
13
18
05
11
02
0&
1%
#975000
1$
1#
16
14
#1000000
0"
0!
0$
0#
06
04
07
03
#1025000
1$
1#
16
14
08
15
01
12
1&
0%
#1050000
1"
1!
0$
0#
06
04
17
13
18
05
11
02
0&
1%
#1075000
1$
1#
16
14
#1100000
0"
0!
0$
0#
06
04
07
03
#1125000
1$
1#
16
14
08
15
01
12
1&
0%
#1150000
1"
1!
0$
0#
06
04
17
13
18
05
11
02
0&
1%
#1175000
1$
1#
16
14
