Quartus/hw10/hw10_restored/simulation/qsim/hw10.msim.vcd
$comment
	File created using the following command:
		vcd file hw10.msim.vcd -direction
$end
$date
	Tue Apr 01 23:02:49 2025
$end
$version
	ModelSim Version 10.5b
$end
$timescale
	1ps
$end

$scope module hw10_vhd_vec_tst $end
$var wire 1 ! A $end
$var wire 1 " B $end
$var wire 1 # C $end
$var wire 1 $ D $end
$var wire 1 % E $end
$var wire 1 & F $end
$var wire 1 ' G $end
$var wire 1 ( T_L $end
$var wire 1 ) X [3] $end
$var wire 1 * X [2] $end
$var wire 1 + X [1] $end
$var wire 1 , X [0] $end

$scope module i1 $end
$var wire 1 - gnd $end
$var wire 1 . vcc $end
$var wire 1 / unknown $end
$var wire 1 0 devoe $end
$var wire 1 1 devclrn $end
$var wire 1 2 devpor $end
$var wire 1 3 ww_devoe $end
$var wire 1 4 ww_devclrn $end
$var wire 1 5 ww_devpor $end
$var wire 1 6 ww_A $end
$var wire 1 7 ww_X [3] $end
$var wire 1 8 ww_X [2] $end
$var wire 1 9 ww_X [1] $end
$var wire 1 : ww_X [0] $end
$var wire 1 ; ww_T_L $end
$var wire 1 < ww_B $end
$var wire 1 = ww_C $end
$var wire 1 > ww_D $end
$var wire 1 ? ww_E $end
$var wire 1 @ ww_F $end
$var wire 1 A ww_G $end
$var wire 1 B \~QUARTUS_CREATED_ADC1~_CHSEL_bus\ [4] $end
$var wire 1 C \~QUARTUS_CREATED_ADC1~_CHSEL_bus\ [3] $end
$var wire 1 D \~QUARTUS_CREATED_ADC1~_CHSEL_bus\ [2] $end
$var wire 1 E \~QUARTUS_CREATED_ADC1~_CHSEL_bus\ [1] $end
$var wire 1 F \~QUARTUS_CREATED_ADC1~_CHSEL_bus\ [0] $end
$var wire 1 G \~QUARTUS_CREATED_ADC2~_CHSEL_bus\ [4] $end
$var wire 1 H \~QUARTUS_CREATED_ADC2~_CHSEL_bus\ [3] $end
$var wire 1 I \~QUARTUS_CREATED_ADC2~_CHSEL_bus\ [2] $end
$var wire 1 J \~QUARTUS_CREATED_ADC2~_CHSEL_bus\ [1] $end
$var wire 1 K \~QUARTUS_CREATED_ADC2~_CHSEL_bus\ [0] $end
$var wire 1 L \~QUARTUS_CREATED_GND~I_combout\ $end
$var wire 1 M \~QUARTUS_CREATED_UNVM~~busy\ $end
$var wire 1 N \~QUARTUS_CREATED_ADC1~~eoc\ $end
$var wire 1 O \~QUARTUS_CREATED_ADC2~~eoc\ $end
$var wire 1 P \A~output_o\ $end
$var wire 1 Q \B~output_o\ $end
$var wire 1 R \C~output_o\ $end
$var wire 1 S \D~output_o\ $end
$var wire 1 T \E~output_o\ $end
$var wire 1 U \F~output_o\ $end
$var wire 1 V \G~output_o\ $end
$var wire 1 W \X[0]~input_o\ $end
$var wire 1 X \X[2]~input_o\ $end
$var wire 1 Y \X[3]~input_o\ $end
$var wire 1 Z \X[1]~input_o\ $end
$var wire 1 [ \inst|A~2_combout\ $end
$var wire 1 \ \T_L~input_o\ $end
$var wire 1 ] \inst|A~3_combout\ $end
$var wire 1 ^ \inst|B~2_combout\ $end
$var wire 1 _ \inst|B~3_combout\ $end
$var wire 1 ` \inst|C~2_combout\ $end
$var wire 1 a \inst|C~3_combout\ $end
$var wire 1 b \inst|D~2_combout\ $end
$var wire 1 c \inst|D~3_combout\ $end
$var wire 1 d \inst|E~0_combout\ $end
$var wire 1 e \inst|E~1_combout\ $end
$var wire 1 f \inst|F~2_combout\ $end
$var wire 1 g \inst|F~3_combout\ $end
$var wire 1 h \inst|G~0_combout\ $end
$var wire 1 i \inst|G~1_combout\ $end
$var wire 1 j \inst|ALT_INV_E~1_combout\ $end
$var wire 1 k \inst|ALT_INV_A~3_combout\ $end
$var wire 1 l \inst|ALT_INV_B~3_combout\ $end
$var wire 1 m \inst|ALT_INV_G~1_combout\ $end
$var wire 1 n \inst|ALT_INV_D~3_combout\ $end
$var wire 1 o \inst|ALT_INV_F~3_combout\ $end
$var wire 1 p \inst|ALT_INV_C~3_combout\ $end
$upscope $end
$upscope $end
$enddefinitions $end
#0
$dumpvars
0!
0"
0#
0$
0%
0&
1'
1(
0-
1.
x/
10
11
12
13
14
15
06
1;
0<
0=
0>
0?
0@
1A
0L
zM
zN
zO
0P
0Q
0R
0S
0T
0U
1V
0W
0X
0Y
0Z
1[
1\
1]
1^
1_
1`
1a
1b
1c
1d
1e
1f
1g
0h
0i
0j
0k
0l
1m
0n
0o
0p
0)
0*
0+
0,
07
08
09
0:
0B
0C
0D
0E
0F
0G
0H
0I
0J
0K
$end
#25000
1,
1:
1W
0[
0b
0d
0f
0g
0e
0c
0]
1k
1n
1j
1o
1U
1T
1S
1P
1@
1?
1>
16
1&
1%
1$
1!
#50000
0,
1+
0:
19
1Z
0W
1[
0`
1b
1d
1h
1i
1e
1c
0a
1]
0k
1p
0n
0j
0m
0V
0T
0S
1R
0P
0A
0?
0>
1=
06
0'
0%
0$
1#
0!
#75000
1,
1:
1W
1`
0d
0e
1a
0p
1j
1T
0R
1?
0=
1%
0#
#100000
0,
0+
1*
0:
09
18
1X
0Z
0W
0[
0b
1f
1g
0c
0]
1k
1n
0o
0U
1S
1P
0@
1>
16
0&
1$
1!
#125000
1,
1:
1W
1[
0^
1b
1c
0_
1]
0k
1l
0n
0S
1Q
0P
0>
1<
06
0$
1"
0!
#150000
0,
1+
0:
19
1Z
0W
1d
1e
0j
0T
0?
0%
#175000
1,
1:
1W
1^
0d
0f
0h
0i
0g
0e
1_
0l
1j
1o
1m
1V
1U
1T
0Q
1A
1@
1?
0<
1'
1&
1%
0"
#200000
0,
0+
0*
1)
0:
09
08
17
1Y
0X
0Z
0W
1d
1f
1h
1i
1g
1e
0j
0o
0m
0V
0U
0T
0A
0@
0?
0'
0&
0%
#225000
1,
1:
1W
0d
0e
1j
1T
1?
1%
#250000
0,
1+
0:
19
1Z
0W
0b
1d
1e
0c
1n
0j
0T
1S
0?
1>
0%
1$
#275000
1,
1:
1W
0[
0^
1b
1c
0_
0]
1k
1l
0n
0S
1Q
1P
0>
1<
16
0$
1"
1!
#300000
0,
0+
1*
0:
09
18
1X
0Z
0W
1[
0`
0h
0i
0a
1]
0k
1p
1m
1V
1R
0P
1A
1=
06
1'
1#
0!
#325000
1,
1:
1W
0[
1^
1`
0f
1h
1i
0g
1a
1_
0]
1k
0l
0p
1o
0m
0V
1U
0R
0Q
1P
0A
1@
0=
0<
16
0'
1&
0#
0"
1!
#350000
0,
1+
0:
19
1Z
0W
1[
0^
0`
1f
1g
0a
0_
1]
0k
1l
1p
0o
0U
1R
1Q
0P
0@
1=
1<
06
0&
1#
1"
0!
#375000
1,
1:
1W
0b
0c
1n
1S
1>
1$
#400000
0,
0+
0*
0)
0:
09
08
07
0Y
0X
0Z
0W
1^
1`
1b
0h
0i
1c
1a
1_
0l
0p
0n
1m
1V
0S
0R
0Q
1A
0>
0=
0<
1'
0$
0#
0"
#425000
1,
0(
1:
0;
0\
1W
0[
0b
0d
0f
1i
0m
0V
0A
0'
#450000
0,
1+
0:
19
1Z
0W
1[
0`
1b
1d
1h
#475000
1,
1:
1W
1`
0d
#500000
0,
0+
1*
0:
09
18
1X
0Z
0W
0[
0b
1f
#525000
1,
1:
1W
1[
0^
1b
#550000
0,
1+
0:
19
1Z
0W
1d
#575000
1,
1:
1W
1^
0d
0f
0h
#600000
0,
0+
0*
1)
0:
09
08
17
1Y
0X
0Z
0W
1d
1f
1h
#625000
1,
1:
1W
0d
#650000
0,
1+
0:
19
1Z
0W
0b
1d
#675000
1,
1:
1W
0[
0^
1b
#700000
0,
0+
1*
0:
09
18
1X
0Z
0W
1[
0`
0h
#725000
1,
1:
1W
0[
1^
1`
0f
1h
#750000
0,
1+
0:
19
1Z
0W
1[
0^
0`
1f
#775000
1,
1:
1W
0b
#800000
0,
0+
0*
0)
1(
0:
09
08
07
1;
1\
0Y
0X
0Z
0W
1^
1`
1b
0h
0_
0a
0c
1n
1p
1l
0i
1c
1a
1_
1Q
1R
1S
0l
0p
0n
1m
1<
1=
1>
1V
0S
0R
0Q
1"
1#
1$
1A
0>
0=
0<
1'
0$
0#
0"
#825000
1,
1:
1W
0[
0b
0d
0f
0g
0e
0c
0]
1k
1n
1j
1o
1U
1T
1S
1P
1@
1?
1>
16
1&
1%
1$
1!
#850000
0,
1+
0:
19
1Z
0W
1[
0`
1b
1d
1h
1i
1e
1c
0a
1]
0k
1p
0n
0j
0m
0V
0T
0S
1R
0P
0A
0?
0>
1=
06
0'
0%
0$
1#
0!
#875000
1,
1:
1W
1`
0d
0e
1a
0p
1j
1T
0R
1?
0=
1%
0#
#900000
0,
0+
1*
0:
09
18
1X
0Z
0W
0[
0b
1f
1g
0c
0]
1k
1n
0o
0U
1S
1P
0@
1>
16
0&
1$
1!
#925000
1,
1:
1W
1[
0^
1b
1c
0_
1]
0k
1l
0n
0S
1Q
0P
0>
1<
06
0$
1"
0!
#950000
0,
1+
0:
19
1Z
0W
1d
1e
0j
0T
0?
0%
#975000
1,
1:
1W
1^
0d
0f
0h
0i
0g
0e
1_
0l
1j
1o
1m
1V
1U
1T
0Q
1A
1@
1?
0<
1'
1&
1%
0"
#1000000
0,
0+
0*
1)
0:
09
08
17
1Y
0X
0Z
0W
1d
1f
1h
1i
1g
1e
0j
0o
0m
0V
0U
0T
0A
0@
0?
0'
0&
0%
#1025000
1,
1:
1W
0d
0e
1j
1T
1?
1%
#1050000
0,
1+
0:
19
1Z
0W
0b
1d
1e
0c
1n
0j
0T
1S
0?
1>
0%
1$
#1075000
1,
1:
1W
0[
0^
1b
1c
0_
0]
1k
1l
0n
0S
1Q
1P
0>
1<
16
0$
1"
1!
#1100000
0,
0+
1*
0:
09
18
1X
0Z
0W
1[
0`
0h
0i
0a
1]
0k
1p
1m
1V
1R
0P
1A
1=
06
1'
1#
0!
#1125000
1,
1:
1W
0[
1^
1`
0f
1h
1i
0g
1a
1_
0]
1k
0l
0p
1o
0m
0V
1U
0R
0Q
1P
0A
1@
0=
0<
16
0'
1&
0#
0"
1!
#1150000
0,
1+
0:
19
1Z
0W
1[
0^
0`
1f
1g
0a
0_
1]
0k
1l
1p
0o
0U
1R
1Q
0P
0@
1=
1<
06
0&
1#
1"
0!
#1175000
1,
1:
1W
0b
0c
1n
1S
1>
1$
