Quartus/Lab1/Lab1a/simulation/qsim/Lab1a.msim.vcd
$comment
	File created using the following command:
		vcd file Lab1a.msim.vcd -direction
$end
$date
	Thu Feb 06 11:01:14 2025
$end
$version
	ModelSim Version 10.5b
$end
$timescale
	1ps
$end

$scope module Lab1a_vlg_vec_tst $end
$var reg 1 ! A $end
$var reg 1 " B $end
$var reg 1 # C $end
$var reg 1 $ D $end
$var wire 1 % W $end

$scope module i1 $end
$var wire 1 & gnd $end
$var wire 1 ' vcc $end
$var wire 1 ( unknown $end
$var tri1 1 ) devclrn $end
$var tri1 1 * devpor $end
$var tri1 1 + devoe $end
$var wire 1 , A~combout $end
$var wire 1 - D~combout $end
$var wire 1 . B~combout $end
$var wire 1 / C~combout $end
$var wire 1 0 inst1~0_combout $end
$upscope $end
$upscope $end
$enddefinitions $end
#0
$dumpvars
0!
0"
0#
0$
x%
0&
1'
x(
1)
1*
1+
x,
x-
x.
x/
x0
$end
#986
0,
0-
0.
0/
#11546
10
#14452
0%
#25000
1$
#25986
1-
#50000
1#
0$
#50986
0-
1/
#61464
00
#64370
1%
#75000
1$
#75986
1-
#86464
10
#89370
0%
#100000
1"
0#
0$
#100986
0-
0/
1.
#111546
00
#114452
1%
#125000
1$
#125986
1-
#150000
1#
0$
#150986
0-
1/
#175000
1$
#175986
1-
#200000
1!
0"
0#
0$
#200986
0-
0/
0.
1,
#210416
10
#213322
0%
#225000
1$
#225986
1-
#250000
1#
0$
#250986
0-
1/
#261464
00
#264370
1%
#275000
1$
#275986
1-
#286464
10
#289370
0%
#300000
1"
0#
0$
#300986
0-
0/
1.
#325000
1$
#325986
1-
#350000
1#
0$
#350986
0-
1/
#361464
00
#364370
1%
#375000
1$
#375986
1-
#386464
10
#389370
0%
#400000
0!
0"
0#
0$
#400986
0-
0/
0.
0,
#410416
00
#411546
10
#425000
1$
#425986
1-
#450000
1#
0$
#450986
0-
1/
#461464
00
#464370
1%
#475000
1$
#475986
1-
#486464
10
#489370
0%
#500000
1"
0#
0$
#500986
0-
0/
1.
#511546
00
#514452
1%
#525000
1$
#525986
1-
#550000
1#
0$
#550986
0-
1/
#575000
1$
#575986
1-
#600000
1!
0"
0#
0$
#600986
0-
0/
0.
1,
#610416
10
#613322
0%
#625000
1$
#625986
1-
#650000
1#
0$
#650986
0-
1/
#661464
00
#664370
1%
#675000
1$
#675986
1-
#686464
10
#689370
0%
#700000
1"
0#
0$
#700986
0-
0/
1.
#725000
1$
#725986
1-
#750000
1#
0$
#750986
0-
1/
#761464
00
#764370
1%
#775000
1$
#775986
1-
#786464
10
#789370
0%
#800000
0!
0"
0#
0$
#800986
0-
0/
0.
0,
#810416
00
#811546
10
#825000
1$
#825986
1-
#850000
1#
0$
#850986
0-
1/
#861464
00
#864370
1%
#875000
1$
#875986
1-
#886464
10
#889370
0%
#900000
1"
0#
0$
#900986
0-
0/
1.
#911546
00
#914452
1%
#925000
1$
#925986
1-
#950000
1#
0$
#950986
0-
1/
#975000
1$
#975986
1-
#1000000
1!
0"
0#
0$
#1000986
0-
0/
0.
1,
#1010416
10
#1013322
0%
#1025000
1$
#1025986
1-
#1050000
1#
0$
#1050986
0-
1/
#1061464
00
#1064370
1%
#1075000
1$
#1075986
1-
#1086464
10
#1089370
0%
#1100000
1"
0#
0$
#1100986
0-
0/
1.
#1125000
1$
#1125986
1-
#1150000
1#
0$
#1150986
0-
1/
#1161464
00
#1164370
1%
#1175000
1$
#1175986
1-
#1186464
10
#1189370
0%
