Quartus/Lab4/Lab4_RALU/simulation/qsim/Lab4_RALU.msim.vcd
$comment
	File created using the following command:
		vcd file Lab4_RALU.msim.vcd -direction
$end
$date
	Thu Mar 13 13:53:15 2025
$end
$version
	ModelSim Version 10.5b
$end
$timescale
	1ps
$end

$scope module Lab4_RALU_vlg_vec_tst $end
$var reg 1 ! CIN $end
$var reg 1 " CLK $end
$var reg 4 # INPUT [3:0] $end
$var reg 2 $ MSA [1:0] $end
$var reg 2 % MSB [1:0] $end
$var reg 3 & MSC [2:0] $end
$var wire 1 ' A [6] $end
$var wire 1 ( A [5] $end
$var wire 1 ) A [4] $end
$var wire 1 * A [3] $end
$var wire 1 + A [2] $end
$var wire 1 , A [1] $end
$var wire 1 - A [0] $end
$var wire 1 . B [6] $end
$var wire 1 / B [5] $end
$var wire 1 0 B [4] $end
$var wire 1 1 B [3] $end
$var wire 1 2 B [2] $end
$var wire 1 3 B [1] $end
$var wire 1 4 B [0] $end
$var wire 1 5 C [6] $end
$var wire 1 6 C [5] $end
$var wire 1 7 C [4] $end
$var wire 1 8 C [3] $end
$var wire 1 9 C [2] $end
$var wire 1 : C [1] $end
$var wire 1 ; C [0] $end
$var wire 1 < COUT $end
$var wire 1 = MUXA [3] $end
$var wire 1 > MUXA [2] $end
$var wire 1 ? MUXA [1] $end
$var wire 1 @ MUXA [0] $end
$var wire 1 A MUXB [3] $end
$var wire 1 B MUXB [2] $end
$var wire 1 C MUXB [1] $end
$var wire 1 D MUXB [0] $end
$var wire 1 E OUTPUT [3] $end
$var wire 1 F OUTPUT [2] $end
$var wire 1 G OUTPUT [1] $end
$var wire 1 H OUTPUT [0] $end
$var wire 1 I REGA [3] $end
$var wire 1 J REGA [2] $end
$var wire 1 K REGA [1] $end
$var wire 1 L REGA [0] $end
$var wire 1 M REGAandB [3] $end
$var wire 1 N REGAandB [2] $end
$var wire 1 O REGAandB [1] $end
$var wire 1 P REGAandB [0] $end
$var wire 1 Q REGALeft [3] $end
$var wire 1 R REGALeft [2] $end
$var wire 1 S REGALeft [1] $end
$var wire 1 T REGALeft [0] $end
$var wire 1 U REGANOT [3] $end
$var wire 1 V REGANOT [2] $end
$var wire 1 W REGANOT [1] $end
$var wire 1 X REGANOT [0] $end
$var wire 1 Y REGAorB [3] $end
$var wire 1 Z REGAorB [2] $end
$var wire 1 [ REGAorB [1] $end
$var wire 1 \ REGAorB [0] $end
$var wire 1 ] REGARight [3] $end
$var wire 1 ^ REGARight [2] $end
$var wire 1 _ REGARight [1] $end
$var wire 1 ` REGARight [0] $end
$var wire 1 a REGAsumB [3] $end
$var wire 1 b REGAsumB [2] $end
$var wire 1 c REGAsumB [1] $end
$var wire 1 d REGAsumB [0] $end
$var wire 1 e REGB [3] $end
$var wire 1 f REGB [2] $end
$var wire 1 g REGB [1] $end
$var wire 1 h REGB [0] $end

$scope module i1 $end
$var wire 1 i gnd $end
$var wire 1 j vcc $end
$var wire 1 k unknown $end
$var tri1 1 l devclrn $end
$var tri1 1 m devpor $end
$var tri1 1 n devoe $end
$var wire 1 o ~QUARTUS_CREATED_GND~I_combout $end
$var wire 1 p ~QUARTUS_CREATED_UNVM~~busy $end
$var wire 1 q ~QUARTUS_CREATED_ADC1~~eoc $end
$var wire 1 r ~QUARTUS_CREATED_ADC2~~eoc $end
$var wire 1 s COUT~output_o $end
$var wire 1 t REGA[3]~output_o $end
$var wire 1 u REGA[2]~output_o $end
$var wire 1 v REGA[1]~output_o $end
$var wire 1 w REGA[0]~output_o $end
$var wire 1 x MUXA[3]~output_o $end
$var wire 1 y MUXA[2]~output_o $end
$var wire 1 z MUXA[1]~output_o $end
$var wire 1 { MUXA[0]~output_o $end
$var wire 1 | REGB[3]~output_o $end
$var wire 1 } REGB[2]~output_o $end
$var wire 1 ~ REGB[1]~output_o $end
$var wire 1 !! REGB[0]~output_o $end
$var wire 1 "! MUXB[3]~output_o $end
$var wire 1 #! MUXB[2]~output_o $end
$var wire 1 $! MUXB[1]~output_o $end
$var wire 1 %! MUXB[0]~output_o $end
$var wire 1 &! OUTPUT[3]~output_o $end
$var wire 1 '! OUTPUT[2]~output_o $end
$var wire 1 (! OUTPUT[1]~output_o $end
$var wire 1 )! OUTPUT[0]~output_o $end
$var wire 1 *! REGAsumB[3]~output_o $end
$var wire 1 +! REGAsumB[2]~output_o $end
$var wire 1 ,! REGAsumB[1]~output_o $end
$var wire 1 -! REGAsumB[0]~output_o $end
$var wire 1 .! REGAorB[3]~output_o $end
$var wire 1 /! REGAorB[2]~output_o $end
$var wire 1 0! REGAorB[1]~output_o $end
$var wire 1 1! REGAorB[0]~output_o $end
$var wire 1 2! REGAandB[3]~output_o $end
$var wire 1 3! REGAandB[2]~output_o $end
$var wire 1 4! REGAandB[1]~output_o $end
$var wire 1 5! REGAandB[0]~output_o $end
$var wire 1 6! REGANOT[3]~output_o $end
$var wire 1 7! REGANOT[2]~output_o $end
$var wire 1 8! REGANOT[1]~output_o $end
$var wire 1 9! REGANOT[0]~output_o $end
$var wire 1 :! REGALeft[3]~output_o $end
$var wire 1 ;! REGALeft[2]~output_o $end
$var wire 1 <! REGALeft[1]~output_o $end
$var wire 1 =! REGALeft[0]~output_o $end
$var wire 1 >! REGARight[3]~output_o $end
$var wire 1 ?! REGARight[2]~output_o $end
$var wire 1 @! REGARight[1]~output_o $end
$var wire 1 A! REGARight[0]~output_o $end
$var wire 1 B! A[6]~output_o $end
$var wire 1 C! A[5]~output_o $end
$var wire 1 D! A[4]~output_o $end
$var wire 1 E! A[3]~output_o $end
$var wire 1 F! A[2]~output_o $end
$var wire 1 G! A[1]~output_o $end
$var wire 1 H! A[0]~output_o $end
$var wire 1 I! B[6]~output_o $end
$var wire 1 J! B[5]~output_o $end
$var wire 1 K! B[4]~output_o $end
$var wire 1 L! B[3]~output_o $end
$var wire 1 M! B[2]~output_o $end
$var wire 1 N! B[1]~output_o $end
$var wire 1 O! B[0]~output_o $end
$var wire 1 P! C[6]~output_o $end
$var wire 1 Q! C[5]~output_o $end
$var wire 1 R! C[4]~output_o $end
$var wire 1 S! C[3]~output_o $end
$var wire 1 T! C[2]~output_o $end
$var wire 1 U! C[1]~output_o $end
$var wire 1 V! C[0]~output_o $end
$var wire 1 W! CLK~input_o $end
$var wire 1 X! CLK~inputclkctrl_outclk $end
$var wire 1 Y! MSA[1]~input_o $end
$var wire 1 Z! MSB[0]~input_o $end
$var wire 1 [! MSB[1]~input_o $end
$var wire 1 \! INPUT[3]~input_o $end
$var wire 1 ]! inst10|10~0_combout $end
$var wire 1 ^! MSC[0]~input_o $end
$var wire 1 _! MSC[1]~input_o $end
$var wire 1 `! MSC[2]~input_o $end
$var wire 1 a! inst23|sub|81~2_combout $end
$var wire 1 b! inst23|sub|81~1_combout $end
$var wire 1 c! MSA[0]~input_o $end
$var wire 1 d! INPUT[2]~input_o $end
$var wire 1 e! inst10|9~0_combout $end
$var wire 1 f! inst7|sub|81~2_combout $end
$var wire 1 g! INPUT[1]~input_o $end
$var wire 1 h! inst|10~1_combout $end
$var wire 1 i! inst9|10~0_combout $end
$var wire 1 j! inst24|sub|81~0_combout $end
$var wire 1 k! inst4|sub|66~combout $end
$var wire 1 l! CIN~input_o $end
$var wire 1 m! INPUT[0]~input_o $end
$var wire 1 n! inst9|9~0_combout $end
$var wire 1 o! inst9|9~1_combout $end
$var wire 1 p! inst15~q $end
$var wire 1 q! inst4|sub|69~0_combout $end
$var wire 1 r! inst4|sub|81~1_combout $end
$var wire 1 s! inst4|sub|81~2_combout $end
$var wire 1 t! inst4|sub|81~0_combout $end
$var wire 1 u! inst|9~0_combout $end
$var wire 1 v! inst|9~1_combout $end
$var wire 1 w! inst11~q $end
$var wire 1 x! inst30~combout $end
$var wire 1 y! inst33|sub|104~0_combout $end
$var wire 1 z! inst33|sub|78~combout $end
$var wire 1 {! inst24|sub|81~1_combout $end
$var wire 1 |! inst24|sub|81~2_combout $end
$var wire 1 }! inst24|sub|81~3_combout $end
$var wire 1 ~! inst9|10~1_combout $end
$var wire 1 !" inst16~q $end
$var wire 1 "" inst|10~0_combout $end
$var wire 1 #" inst|10~2_combout $end
$var wire 1 $" inst12~q $end
$var wire 1 %" inst31~combout $end
$var wire 1 &" inst33|sub|80~0_combout $end
$var wire 1 '" inst33|sub|80~combout $end
$var wire 1 (" inst7|sub|81~0_combout $end
$var wire 1 )" inst7|sub|81~1_combout $end
$var wire 1 *" inst7|sub|81~3_combout $end
$var wire 1 +" inst10|9~1_combout $end
$var wire 1 ," inst17~q $end
$var wire 1 -" inst8|9~0_combout $end
$var wire 1 ." inst8|9~1_combout $end
$var wire 1 /" inst13~q $end
$var wire 1 0" inst33|sub|82~0_combout $end
$var wire 1 1" inst33|sub|105~0_combout $end
$var wire 1 2" inst33|sub|106~0_combout $end
$var wire 1 3" inst23|sub|81~0_combout $end
$var wire 1 4" inst23|sub|81~3_combout $end
$var wire 1 5" inst10|10~1_combout $end
$var wire 1 6" inst18~q $end
$var wire 1 7" inst8|10~0_combout $end
$var wire 1 8" inst8|10~1_combout $end
$var wire 1 9" inst14~q $end
$var wire 1 :" inst33|sub|107~0_combout $end
$var wire 1 ;" inst33|sub|82~combout $end
$var wire 1 <" inst33|sub|76~0_combout $end
$var wire 1 =" inst32~combout $end
$var wire 1 >" inst29~combout $end
$var wire 1 ?" inst28~combout $end
$var wire 1 @" inst27~combout $end
$var wire 1 A" inst26~combout $end
$var wire 1 B" inst25~combout $end
$var wire 1 C" inst39|inst17~0_combout $end
$var wire 1 D" inst39|boom2~0_combout $end
$var wire 1 E" inst39|boom1~0_combout $end
$var wire 1 F" inst39|boom~0_combout $end
$var wire 1 G" inst39|boom3~0_combout $end
$var wire 1 H" inst39|inst50~0_combout $end
$var wire 1 I" inst39|BOOF~0_combout $end
$var wire 1 J" inst40|inst17~0_combout $end
$var wire 1 K" inst40|boom2~0_combout $end
$var wire 1 L" inst40|boom1~0_combout $end
$var wire 1 M" inst40|boom~0_combout $end
$var wire 1 N" inst40|boom3~0_combout $end
$var wire 1 O" inst40|inst50~0_combout $end
$var wire 1 P" inst40|BOOF~0_combout $end
$var wire 1 Q" inst41|inst17~0_combout $end
$var wire 1 R" inst41|boom2~0_combout $end
$var wire 1 S" inst41|boom1~0_combout $end
$var wire 1 T" inst41|boom~0_combout $end
$var wire 1 U" inst41|boom3~0_combout $end
$var wire 1 V" inst41|inst50~0_combout $end
$var wire 1 W" inst41|BOOF~0_combout $end
$upscope $end
$upscope $end
$enddefinitions $end
#0
$dumpvars
0!
0"
b11 #
b0 $
b11 %
b0 &
0-
0,
0+
0*
0)
0(
1'
04
03
02
01
00
0/
1.
0;
0:
09
08
07
06
15
0<
1@
1?
0>
0=
0D
0C
0B
0A
0H
0G
0F
0E
0L
0K
0J
0I
0P
0O
0N
0M
0T
0S
0R
0Q
1X
1W
1V
1U
0\
0[
0Z
0Y
0`
0_
0^
0]
0d
0c
0b
0a
0h
0g
0f
0e
0i
1j
xk
1l
1m
1n
0o
zp
zq
zr
0s
0t
0u
0v
0w
0x
0y
1z
1{
0|
0}
0~
0!!
0"!
0#!
0$!
0%!
0&!
0'!
0(!
0)!
0*!
0+!
0,!
0-!
0.!
0/!
00!
01!
02!
03!
04!
05!
16!
17!
18!
19!
0:!
0;!
0<!
0=!
0>!
0?!
0@!
0A!
1B!
0C!
0D!
0E!
0F!
0G!
0H!
1I!
0J!
0K!
0L!
0M!
0N!
0O!
1P!
0Q!
0R!
0S!
0T!
0U!
0V!
0W!
0X!
0Y!
1Z!
1[!
0\!
1]!
0^!
0_!
0`!
0a!
0b!
0c!
0d!
1e!
0f!
1g!
1h!
1i!
0j!
0k!
0l!
1m!
1n!
0o!
0p!
0q!
0r!
0s!
0t!
1u!
1v!
0w!
0x!
0y!
0z!
0{!
0|!
0}!
0~!
0!"
0""
1#"
0$"
0%"
0&"
0'"
0("
0)"
0*"
0+"
0,"
0-"
0."
0/"
00"
01"
02"
03"
04"
05"
06"
07"
08"
09"
0:"
0;"
0<"
0="
0>"
0?"
0@"
0A"
0B"
0C"
0D"
0E"
0F"
0G"
1H"
1I"
0J"
0K"
0L"
0M"
0N"
1O"
1P"
0Q"
0R"
0S"
0T"
0U"
1V"
1W"
$end
#25000
1"
b111 #
b101 #
b100 #
1d!
0g!
0m!
1W!
1X!
1-"
0h!
0u!
1."
0#"
0v!
0{
0z
1y
1>
0?
0@
1$"
1w!
09!
08!
1w
1<!
1v
1;!
1A!
1C"
1j!
1r!
1q!
1`
1R
1K
1S
1L
0W
0X
1E"
1D"
1z!
1x!
1>"
1<"
1-!
11!
10!
1,!
1C!
1D!
0B!
1""
1s!
1{!
0'
1)
1(
1c
1[
1\
1d
1}!
1(!
1|!
1Q"
1G
1t!
1U"
1R"
1~!
1$!
1Q!
1T!
1)!
0P!
05
1H
19
16
1C
0U"
1S"
1o!
1%!
1R!
0T!
09
17
1D
#50000
0"
b101 #
1m!
0W!
0X!
1u!
1v!
1{
1@
#75000
b111 #
1"
b110 #
1W!
1g!
0m!
1X!
1h!
0u!
1#"
0v!
0{
1z
1?
0@
1/"
0$"
1!"
1p!
18!
07!
1!!
1~
0v
0;!
0A!
1u
1:!
1@!
0H"
13"
1&"
1f!
0j!
1J"
1y!
1_
1Q
1J
0`
0R
0K
1g
1h
0V
1W
0D"
1%"
1L"
1K"
1B"
0<"
0-!
15!
1J!
1K!
1/!
0C!
0I!
1G!
0""
11"
1("
1,
0.
0(
1Z
10
1/
1P
0d
1*"
0}!
0z!
0,!
0(!
1'!
12"
1)"
0V"
1F
0G
0c
1;"
0R"
1+"
0~!
0$!
1#!
0Q!
1*!
1U!
1:
1a
06
1B
0C
#100000
b1 $
b10 %
b1 &
0"
b111 #
1c!
0Z!
1^!
1m!
0W!
0X!
0-"
0h!
0i!
0e!
0]!
0("
0{!
0q!
1j!
0f!
1a!
1v!
1{
0)"
0|!
1""
1@
0#"
1~!
0+"
1}!
0*"
0'!
1(!
0#!
1$!
0z
1V"
0?
1C
0B
1G
0F
1R"
1Q!
0U!
0:
16
#125000
b1111 #
b1011 #
b1001 #
1"
b1000 #
1W!
1\!
0d!
0g!
0m!
1X!
#150000
0"
b1001 #
1m!
0W!
0X!
#175000
b1011 #
1"
b1010 #
1W!
1g!
0m!
1X!
#200000
b11 $
b0 %
b11 &
b10 $
b1 %
b10 &
0"
b1011 #
1Y!
0c!
0[!
1Z!
1_!
0^!
1m!
0W!
0X!
1u!
0n!
1|!
0r!
1b!
0a!
1q!
1#"
0."
0v!
0~!
1+"
1#!
0$!
0{
0y
1z
0s!
1?
0>
0@
0C
1B
1v!
14"
1&!
1{
0W"
0V"
1@
1E
0t!
0S"
0R"
0Q!
0R!
0)!
1U!
1V!
1W"
1V"
1;
1:
0H
07
06
1T"
1S!
0U!
0V!
0;
0:
18
#225000
b1111 #
b1101 #
1"
b1100 #
1W!
1d!
0g!
0m!
1X!
0/"
1,"
1$"
0!"
08!
17!
0~
1v
1;!
1A!
1}
0u
0:!
0@!
1H"
03"
1f!
0O"
1-"
1)"
0j!
1i!
0_
0Q
0J
1f
1`
1R
1K
0g
1V
0W
1D"
0+"
0K"
0#"
0z
0J!
0#!
1C!
1N!
0G!
0""
0,
13
1(
0B
0/
0?
1*"
1."
0}!
1~!
1$!
0(!
1y
1'!
0V"
0Q"
1F
1>
0G
1C
1U"
0T"
0S!
1T!
1P!
1U!
1:
15
19
08
#250000
0"
b1101 #
1m!
0W!
0X!
#275000
b1111 #
1"
b1110 #
1W!
1g!
0m!
1X!
1/"
0,"
0$"
1!"
18!
07!
1~
0v
0;!
0A!
0}
1u
1:!
1@!
0H"
13"
0f!
1O"
0-"
0)"
1j!
0i!
1_
1Q
1J
0f
0`
0R
0K
1g
0V
1W
0D"
1+"
1K"
1#"
1z
1J!
1#!
0C!
0N!
1G!
1""
1,
03
0(
1B
1/
1?
0*"
0."
1}!
0~!
0$!
1(!
0y
0'!
1V"
1Q"
0F
0>
1G
0C
0U"
1T"
1S!
0T!
0P!
0U!
0:
05
09
18
#300000
b11 $
b0 %
b11 &
0"
b1111 #
1c!
0Z!
1^!
1m!
0W!
0X!
17"
1-"
1h!
1n!
1i!
1e!
1]!
1("
1{!
1r!
0q!
0j!
0b!
1."
0v!
0+"
0o!
0%!
0#!
0{
1y
1s!
0""
1>
0@
0B
0D
18"
0."
1o!
1~!
1+"
15"
0}!
04"
0&!
0(!
1"!
1#!
1$!
1%!
0y
1x
0Q"
1=
0>
1D
1C
1B
1A
0G
0E
1t!
0#"
0T"
08"
0x
0S!
0z
1)!
1P!
0W"
15
1H
0?
08
0=
1T"
1S"
1R"
1v!
1{
1Q!
1R!
1S!
1V!
1;
18
17
16
1@
#325000
b111 #
b11 #
b1 #
1"
b0 #
1W!
0\!
0d!
0g!
0m!
1X!
0]!
0e!
0i!
0n!
05"
0+"
0~!
0o!
0%!
0$!
0#!
0"!
0A
0B
0C
0D
16"
0/"
1,"
17!
1}
0u
0:!
0@!
1|
0O"
10"
0I"
1H"
0C"
0|!
1e
0_
0Q
0J
1f
1V
1N"
1M"
0L"
0K"
1="
1:"
1F"
1D"
1C!
1E!
1s
1.!
0J!
0K!
1L!
1M!
1B!
0G!
1H!
1N!
03"
13
1-
0,
1'
12
11
00
0/
1Y
1<
1*
1(
0;"
0*!
0a
#350000
0"
b1 #
1m!
0W!
0X!
1n!
1o!
1%!
1D
#375000
b11 #
1"
b10 #
1W!
1g!
0m!
1X!
1i!
0n!
1~!
0o!
0%!
1$!
1C
0D
06"
0,"
0!"
0~
0}
0|
0P"
1O"
0J"
00"
02"
0&"
01"
0e
0f
0g
0N"
1L"
1K"
0="
0:"
1;"
0%"
1'"
1z!
0x!
00!
1,!
1+!
0/!
1*!
0s
0.!
1J!
1K!
0M!
1I!
0N!
1O!
14
03
1.
02
10
1/
0Y
0<
1a
0Z
1b
1c
0[
0;"
0'"
0+!
0*!
0a
0b
#400000
b111 &
b1 $
b10 %
b101 &
b0 $
b11 %
b100 &
0"
b11 #
1`!
0_!
0^!
0Y!
0c!
1[!
1Z!
1m!
0W!
0X!
0s!
1a!
1)"
0("
1|!
0{!
1q!
07"
0-"
1n!
1e!
1]!
0t!
18"
1#"
1."
0~!
1o!
1%!
0$!
1y
1z
1x
0)!
0)"
1""
0|!
1W"
0H
1=
1?
1>
0C
1D
1t!
1*"
1}!
08"
0."
0o!
0T"
0S"
0R"
0Q!
0R!
0S!
0%!
0y
0x
1(!
1'!
1)!
0V!
0""
0;
1H
1F
1G
0=
0>
0D
08
07
06
0*"
0}!
1T"
1S"
1R"
1o!
1+"
1~!
1$!
1#!
1%!
1Q!
1R!
1S!
0(!
0'!
0W"
0F
0G
18
17
16
1D
1B
1C
0+"
0~!
0$!
0#!
1V!
1;
0B
0C
#425000
b111 #
b101 #
1"
b100 #
1W!
1d!
0g!
0m!
1X!
1-"
0h!
0u!
1."
0#"
0v!
0{
0z
1y
1>
0?
0@
1$"
08!
1v
1;!
1A!
1I"
1C"
11"
1j!
1`
1R
1K
0W
0F"
1'"
0z!
1x!
10!
0,!
1+!
0E!
0B!
0H!
1{!
0-
0'
0*
1b
0c
1[
1|!
1""
1}!
1(!
1W"
1Q"
1G
0T"
1~!
1$!
0S!
0P!
0V!
0;
05
08
1C
#450000
0"
b101 #
1m!
0W!
0X!
1u!
1v!
1{
1@
#475000
b111 #
1"
b110 #
1W!
1g!
0m!
1X!
1h!
0u!
1#"
0v!
0{
1z
1?
0@
1/"
0$"
1!"
18!
07!
1~
0v
0;!
0A!
1u
1:!
1@!
0H"
13"
12"
1&"
1f!
0j!
1P"
1J"
1_
1Q
1J
0`
0R
0K
1g
0V
1W
0D"
1;"
1%"
0M"
0L!
1/!
1*!
0C!
0I!
0O!
1G!
1("
1,
04
0.
0(
1a
1Z
01
0'"
0+!
1)"
0b
1*"
1'!
0Q"
1F
1T"
1+"
1#!
1S!
1P!
15
18
1B
#500000
b1 $
b10 %
b101 &
0"
b111 #
1c!
0Z!
1^!
1m!
0W!
0X!
0-"
0h!
0i!
0e!
0]!
0("
0{!
0q!
1j!
0f!
1b!
1v!
1{
0)"
0|!
1@
0#"
0+"
0t!
14"
1&!
0)!
0#!
0z
0""
0V"
1Q"
0?
0B
0H
1E
0*"
0}!
1U"
0T"
0S"
0R"
0Q!
0R!
0S!
1T!
0(!
0'!
0P!
1U!
1V"
1:
05
0F
0G
19
08
07
06
0U"
0T!
0U!
0:
09
#525000
b1111 #
b1011 #
b1001 #
1"
b1000 #
1W!
1\!
0d!
0g!
0m!
1X!
#550000
0"
b1001 #
1m!
0W!
0X!
#575000
b1011 #
1"
b1010 #
1W!
1g!
0m!
1X!
#600000
b11 $
b0 %
b111 &
b10 $
b1 %
b110 &
0"
b1011 #
1Y!
0c!
0[!
1Z!
1_!
0^!
1m!
0W!
0X!
1u!
0n!
1|!
1s!
0r!
1q!
1#"
0."
0v!
0~!
1+"
0o!
0%!
1#!
0$!
0{
0y
1z
1""
1?
0>
0@
0C
1B
0D
1v!
1o!
1}!
1(!
1%!
1{
1@
1D
1G
1T"
1S!
18
#625000
b1111 #
b1101 #
1"
b1100 #
1W!
1d!
0g!
0m!
1X!
0/"
1,"
1$"
0!"
08!
17!
0~
1v
1;!
1A!
1}
0u
0:!
0@!
1H"
03"
1f!
0O"
1-"
1)"
0j!
1i!
0_
0Q
0J
1f
1`
1R
1K
0g
1V
0W
1D"
0+"
0K"
0#"
0z
0J!
0#!
1C!
1N!
0G!
0,
13
1(
0B
0/
0?
04"
1*"
1."
1~!
1$!
1y
1'!
0&!
0V"
0E
1F
1>
1C
0T"
0S!
1U!
1:
08
#650000
0"
b1101 #
1m!
0W!
0X!
#675000
b1111 #
1"
b1110 #
1W!
1g!
0m!
1X!
1/"
0,"
0$"
1!"
18!
07!
1~
0v
0;!
0A!
0}
1u
1:!
1@!
0H"
13"
0f!
1O"
0-"
0)"
1j!
0i!
1_
1Q
1J
0f
0`
0R
0K
1g
0V
1W
0D"
1+"
1K"
1#"
1z
1J!
1#!
0C!
0N!
1G!
1,
03
0(
1B
1/
1?
14"
0*"
0."
0~!
0$!
0y
0'!
1&!
1V"
1E
0F
0>
0C
1T"
1S!
0U!
0:
18
#700000
b11 $
b0 %
b111 &
0"
b1111 #
1c!
0Z!
1^!
1m!
0W!
0X!
17"
1-"
1h!
1n!
1i!
1e!
1]!
1("
1{!
1r!
0q!
0j!
0b!
0a!
1."
0v!
0+"
0o!
0%!
0#!
0{
1y
1>
0@
0B
0D
18"
0."
1o!
1~!
1+"
15"
04"
0&!
1"!
1#!
1$!
1%!
0y
1x
1=
0>
1D
1C
1B
1A
0E
1U"
0T"
1R"
08"
0x
1Q!
0S!
1T!
19
08
16
0=
#725000
b111 #
b11 #
b1 #
1"
b0 #
1W!
0\!
0d!
0g!
0m!
1X!
0]!
0e!
0i!
0n!
05"
0+"
0~!
0o!
0%!
0$!
0#!
0"!
0A
0B
0C
0D
16"
0/"
1,"
1$"
0w!
19!
08!
17!
0w
0<!
1v
1;!
1A!
1}
0u
0:!
0@!
1|
0O"
10"
1H"
0|!
1k!
1j!
0y!
0r!
1q!
1e
0_
0Q
0J
1f
1`
1R
1K
0S
0L
1V
0W
1X
1N"
1M"
0L"
0K"
1="
1:"
1G"
0E"
1D"
1A"
1z!
0B"
1<"
1-!
05!
1,!
14!
1C!
0D!
1F!
1s
1.!
0J!
0K!
1L!
1M!
0G!
1N!
03"
0""
13
0,
12
11
00
0/
1Y
1<
1+
0)
1(
1O
1c
0P
1d
0;"
0}!
1t!
0z!
0,!
1)!
0(!
0*!
0W"
0Q"
0a
0G
1H
0c
0#"
0U"
1T"
1S"
1v!
1{
1R!
1S!
0T!
0z
1P!
1V!
1;
15
0?
09
18
17
1@
#750000
0"
b1 #
1m!
0W!
0X!
1n!
1o!
1%!
1D
#775000
b11 #
1"
b10 #
1W!
1g!
0m!
1X!
1i!
0n!
1~!
0o!
0%!
1$!
1C
0D
06"
0,"
0$"
0!"
1w!
09!
18!
1w
1<!
0~
0v
0;!
0A!
0}
0|
0P"
1O"
0J"
00"
02"
0&"
0I"
0C"
01"
0k!
0j!
1y!
1r!
0q!
0e
0f
0`
0R
0K
0g
1S
1L
1W
0X
0N"
1L"
1K"
0="
0:"
1;"
0%"
0G"
1F"
1E"
0A"
1'"
0x!
1B"
0<"
0-!
15!
00!
1+!
04!
1D!
1E!
0F!
0/!
1*!
0s
0.!
1J!
1K!
0M!
1B!
1H!
1I!
0N!
1O!
14
03
1.
1-
1'
02
10
1/
0Y
0<
1a
0Z
0+
1*
1)
0O
1b
0[
1P
0d
0;"
0'"
0t!
1z!
1,!
0)!
0+!
0*!
1W"
0a
0b
0H
1c
0T"
0S"
0R"
0v!
0{
0Q!
0R!
0S!
0V!
0;
08
07
06
0@
#800000
b11 &
b1 $
b10 %
b1 &
b0 $
b11 %
b0 &
0"
b11 #
0`!
0_!
0^!
0Y!
0c!
1[!
1Z!
1m!
0W!
0X!
1)"
0("
1|!
0{!
1q!
07"
0-"
1n!
1e!
1]!
1t!
18"
1#"
1."
1v!
0~!
1o!
1%!
0$!
1{
1y
1z
1x
1)!
0)"
0|!
0W"
1H
1=
1?
1>
1@
0C
1D
08"
0."
1T"
1S"
1R"
1Q!
1R!
1S!
0y
0x
1V!
1;
0=
0>
18
17
16
#825000
b111 #
b101 #
1"
b100 #
1W!
1d!
0g!
0m!
1X!
1-"
0h!
0u!
1."
0#"
0v!
0{
0z
1y
1>
0?
0@
1$"
08!
1v
1;!
1A!
1I"
1C"
11"
1j!
1`
1R
1K
0W
0F"
1'"
0z!
1x!
10!
0,!
1+!
0E!
0B!
0H!
1""
1{!
0-
0'
0*
1b
0c
1[
1}!
1(!
1|!
1W"
1Q"
1G
0T"
1~!
1$!
0S!
0P!
0V!
0;
05
08
1C
#850000
0"
b101 #
1m!
0W!
0X!
1u!
1v!
1{
1@
#875000
b111 #
1"
b110 #
1W!
1g!
0m!
1X!
1h!
0u!
1#"
0v!
0{
1z
1?
0@
1/"
0$"
1!"
18!
07!
1~
0v
0;!
0A!
1u
1:!
1@!
0H"
13"
12"
1&"
1f!
0j!
1P"
1J"
1_
1Q
1J
0`
0R
0K
1g
0V
1W
0D"
1;"
1%"
0M"
0L!
1/!
1*!
0C!
0I!
0O!
1G!
0""
1("
1,
04
0.
0(
1a
1Z
01
0'"
1*"
0}!
0(!
1'!
0+!
1)"
0V"
0b
1F
0G
0R"
1+"
0~!
0$!
1#!
0Q!
1U!
1:
06
1B
0C
#900000
b1 $
b10 %
b1 &
0"
b111 #
1c!
0Z!
1^!
1m!
0W!
0X!
0-"
0h!
0i!
0e!
0]!
0("
0{!
0q!
1j!
0f!
1a!
1v!
1{
0)"
0|!
1""
1@
0#"
1~!
0+"
1}!
0*"
0'!
1(!
0#!
1$!
0z
1V"
0?
1C
0B
1G
0F
1R"
1Q!
0U!
0:
16
#925000
b1111 #
b1011 #
b1001 #
1"
b1000 #
1W!
1\!
0d!
0g!
0m!
1X!
#950000
0"
b1001 #
1m!
0W!
0X!
#975000
b1011 #
1"
b1010 #
1W!
1g!
0m!
1X!
#1000000
b11 $
b0 %
b11 &
b10 $
b1 %
b10 &
0"
b1011 #
1Y!
0c!
0[!
1Z!
1_!
0^!
1m!
0W!
0X!
1u!
0n!
1|!
0r!
1b!
0a!
1q!
1#"
0."
0v!
0~!
1+"
1#!
0$!
0{
0y
1z
0s!
1?
0>
0@
0C
1B
1v!
14"
1&!
1{
0W"
0V"
1@
1E
0t!
0S"
0R"
0Q!
0R!
0)!
1U!
1V!
1W"
1V"
1;
1:
0H
07
06
1T"
1S!
0U!
0V!
0;
0:
18
#1025000
b1111 #
b1101 #
1"
b1100 #
1W!
1d!
0g!
0m!
1X!
0/"
1,"
1$"
0!"
08!
17!
0~
1v
1;!
1A!
1}
0u
0:!
0@!
1H"
03"
1f!
0O"
1-"
1)"
0j!
1i!
0_
0Q
0J
1f
1`
1R
1K
0g
1V
0W
1D"
0+"
0K"
0#"
0z
0J!
0#!
1C!
1N!
0G!
0""
0,
13
1(
0B
0/
0?
1*"
1."
0}!
1~!
1$!
0(!
1y
1'!
0V"
0Q"
1F
1>
0G
1C
1U"
0T"
0S!
1T!
1P!
1U!
1:
15
19
08
#1050000
0"
b1101 #
1m!
0W!
0X!
#1075000
b1111 #
1"
b1110 #
1W!
1g!
0m!
1X!
1/"
0,"
0$"
1!"
18!
07!
1~
0v
0;!
0A!
0}
1u
1:!
1@!
0H"
13"
0f!
1O"
0-"
0)"
1j!
0i!
1_
1Q
1J
0f
0`
0R
0K
1g
0V
1W
0D"
1+"
1K"
1#"
1z
1J!
1#!
0C!
0N!
1G!
1""
1,
03
0(
1B
1/
1?
0*"
0."
1}!
0~!
0$!
1(!
0y
0'!
1V"
1Q"
0F
0>
1G
0C
0U"
1T"
1S!
0T!
0P!
0U!
0:
05
09
18
#1100000
b11 $
b0 %
b11 &
0"
b1111 #
1c!
0Z!
1^!
1m!
0W!
0X!
17"
1-"
1h!
1n!
1i!
1e!
1]!
1("
1{!
1r!
0q!
0j!
0b!
1."
0v!
0+"
0o!
0%!
0#!
0{
1y
1s!
0""
1>
0@
0B
0D
18"
0."
1o!
1~!
1+"
15"
0}!
04"
0&!
0(!
1"!
1#!
1$!
1%!
0y
1x
0Q"
1=
0>
1D
1C
1B
1A
0G
0E
1t!
0#"
0T"
08"
0x
0S!
0z
1)!
1P!
0W"
15
1H
0?
08
0=
1T"
1S"
1R"
1v!
1{
1Q!
1R!
1S!
1V!
1;
18
17
16
1@
