Quartus/Practical1/Practical1_restored/simulation/qsim/Practical1.msim.vcd
$comment
	File created using the following command:
		vcd file Practical1.msim.vcd -direction
$end
$date
	Tue Mar 04 19:04:23 2025
$end
$version
	ModelSim Version 10.5b
$end
$timescale
	1ps
$end

$scope module Practical1_vlg_vec_tst $end
$var reg 1 ! A $end
$var reg 1 " B_L $end
$var reg 1 # CLK $end
$var reg 1 $ R_L $end
$var reg 1 % S_L $end
$var reg 1 & Start_L $end
$var wire 1 ' Q0 $end
$var wire 1 ( Q0_L $end
$var wire 1 ) Y_L $end

$scope module i1 $end
$var wire 1 * gnd $end
$var wire 1 + vcc $end
$var wire 1 , unknown $end
$var tri1 1 - devclrn $end
$var tri1 1 . devpor $end
$var tri1 1 / devoe $end
$var wire 1 0 S_L~input_o $end
$var wire 1 1 R_L~input_o $end
$var wire 1 2 ~QUARTUS_CREATED_GND~I_combout $end
$var wire 1 3 ~QUARTUS_CREATED_UNVM~~busy $end
$var wire 1 4 ~QUARTUS_CREATED_ADC1~~eoc $end
$var wire 1 5 ~QUARTUS_CREATED_ADC2~~eoc $end
$var wire 1 6 Q0~output_o $end
$var wire 1 7 Y_L~output_o $end
$var wire 1 8 Q0_L~output_o $end
$var wire 1 9 CLK~input_o $end
$var wire 1 : A~input_o $end
$var wire 1 ; B_L~input_o $end
$var wire 1 < inst1~0_combout $end
$var wire 1 = Start_L~input_o $end
$var wire 1 > inst1~q $end
$var wire 1 ? inst4~combout $end
$upscope $end
$upscope $end
$enddefinitions $end
#0
$dumpvars
0!
0"
0#
x$
x%
0&
1'
0(
1)
0*
1+
x,
1-
1.
1/
x0
x1
02
z3
z4
z5
16
17
08
09
0:
0;
0<
0=
0>
0?
$end
#25000
1"
1&
1#
1=
1;
19
1?
07
0)
#50000
1!
0"
0#
0;
1:
09
0?
1<
17
1)
#75000
1"
1#
1;
19
1?
0<
07
0)
1>
06
0?
0'
1<
17
1)
#100000
0!
0"
0#
0;
0:
09
#125000
1"
1#
1;
19
#150000
1!
0"
0#
0;
1:
09
0<
#175000
1"
1#
1;
19
1<
0>
16
1?
1'
0<
07
0)
#200000
0!
0"
0#
0;
0:
09
0?
17
1)
#225000
1"
1#
1;
19
1?
07
0)
#250000
1!
0"
0#
0;
1:
09
0?
1<
17
1)
#275000
1"
1#
1;
19
1?
0<
07
0)
1>
06
0?
0'
1<
17
1)
#300000
0!
0"
0#
0;
0:
09
#325000
1"
1#
1;
19
#350000
1!
0"
0#
0;
1:
09
0<
#375000
1"
1#
1;
19
1<
0>
16
1?
1'
0<
07
0)
#400000
0!
0"
0#
0;
0:
09
0?
17
1)
#425000
1"
1#
1;
19
1?
07
0)
#450000
1!
0"
0#
0;
1:
09
0?
1<
17
1)
#475000
1"
1#
1;
19
1?
0<
07
0)
1>
06
0?
0'
1<
17
1)
#500000
0!
0"
0#
0;
0:
09
#525000
1"
1#
1;
19
#550000
1!
0"
0#
0;
1:
09
0<
#575000
1"
1#
1;
19
1<
0>
16
1?
1'
0<
07
0)
#600000
0!
0"
0#
0;
0:
09
0?
17
1)
#625000
1"
1#
1;
19
1?
07
0)
#650000
1!
0"
0#
0;
1:
09
0?
1<
17
1)
#675000
1"
1#
1;
19
1?
0<
07
0)
1>
06
0?
0'
1<
17
1)
#700000
0!
0"
0#
0;
0:
09
#725000
1"
1#
1;
19
#750000
1!
0"
0#
0;
1:
09
0<
#775000
1"
1#
1;
19
1<
0>
16
1?
1'
0<
07
0)
#800000
0!
0"
0#
0;
0:
09
0?
17
1)
#825000
1"
1#
1;
19
1?
07
0)
#850000
1!
0"
0#
0;
1:
09
0?
1<
17
1)
#875000
1"
1#
1;
19
1?
0<
07
0)
1>
06
0?
0'
1<
17
1)
#900000
0!
0"
0#
0;
0:
09
#925000
1"
1#
1;
19
#950000
1!
0"
0#
0;
1:
09
0<
#975000
1"
1#
1;
19
1<
0>
16
1?
1'
0<
07
0)
#1000000
0!
0"
0#
0;
0:
09
0?
17
1)
#1025000
1"
1#
1;
19
1?
07
0)
#1050000
1!
0"
0#
0;
1:
09
0?
1<
17
1)
#1075000
1"
1#
1;
19
1?
0<
07
0)
1>
06
0?
0'
1<
17
1)
#1100000
0!
0"
0#
0;
0:
09
#1125000
1"
1#
1;
19
#1150000
1!
0"
0#
0;
1:
09
0<
#1175000
1"
1#
1;
19
1<
0>
16
1?
1'
0<
07
0)
