Quartus/Quiz5/Quiz5_restored/simulation/qsim/Quiz5.msim.vcd
$comment
	File created using the following command:
		vcd file Quiz5.msim.vcd -direction
$end
$date
	Thu Mar 27 20:43:09 2025
$end
$version
	ModelSim Version 10.5b
$end
$timescale
	1ps
$end

$scope module quiz5_vhd_vec_tst $end
$var wire 1 ! A_L $end
$var wire 1 " CLK $end
$var wire 1 # D0 $end
$var wire 1 $ D1 $end
$var wire 1 % D2 $end
$var wire 1 & F $end
$var wire 1 ' Q0 $end
$var wire 1 ( Q1 $end
$var wire 1 ) Q2 $end
$var wire 1 * Start_L $end
$var wire 1 + TS $end

$scope module i1 $end
$var wire 1 , gnd $end
$var wire 1 - vcc $end
$var wire 1 . unknown $end
$var wire 1 / devoe $end
$var wire 1 0 devclrn $end
$var wire 1 1 devpor $end
$var wire 1 2 ww_devoe $end
$var wire 1 3 ww_devclrn $end
$var wire 1 4 ww_devpor $end
$var wire 1 5 ww_Q2 $end
$var wire 1 6 ww_Start_L $end
$var wire 1 7 ww_CLK $end
$var wire 1 8 ww_D2 $end
$var wire 1 9 ww_A_L $end
$var wire 1 : ww_Q1 $end
$var wire 1 ; ww_D1 $end
$var wire 1 < ww_Q0 $end
$var wire 1 = ww_D0 $end
$var wire 1 > ww_TS $end
$var wire 1 ? ww_F $end
$var wire 1 @ \~QUARTUS_CREATED_ADC1~_CHSEL_bus\ [4] $end
$var wire 1 A \~QUARTUS_CREATED_ADC1~_CHSEL_bus\ [3] $end
$var wire 1 B \~QUARTUS_CREATED_ADC1~_CHSEL_bus\ [2] $end
$var wire 1 C \~QUARTUS_CREATED_ADC1~_CHSEL_bus\ [1] $end
$var wire 1 D \~QUARTUS_CREATED_ADC1~_CHSEL_bus\ [0] $end
$var wire 1 E \~QUARTUS_CREATED_ADC2~_CHSEL_bus\ [4] $end
$var wire 1 F \~QUARTUS_CREATED_ADC2~_CHSEL_bus\ [3] $end
$var wire 1 G \~QUARTUS_CREATED_ADC2~_CHSEL_bus\ [2] $end
$var wire 1 H \~QUARTUS_CREATED_ADC2~_CHSEL_bus\ [1] $end
$var wire 1 I \~QUARTUS_CREATED_ADC2~_CHSEL_bus\ [0] $end
$var wire 1 J \Start_L~inputclkctrl_INCLK_bus\ [3] $end
$var wire 1 K \Start_L~inputclkctrl_INCLK_bus\ [2] $end
$var wire 1 L \Start_L~inputclkctrl_INCLK_bus\ [1] $end
$var wire 1 M \Start_L~inputclkctrl_INCLK_bus\ [0] $end
$var wire 1 N \CLK~inputclkctrl_INCLK_bus\ [3] $end
$var wire 1 O \CLK~inputclkctrl_INCLK_bus\ [2] $end
$var wire 1 P \CLK~inputclkctrl_INCLK_bus\ [1] $end
$var wire 1 Q \CLK~inputclkctrl_INCLK_bus\ [0] $end
$var wire 1 R \~QUARTUS_CREATED_GND~I_combout\ $end
$var wire 1 S \~QUARTUS_CREATED_UNVM~~busy\ $end
$var wire 1 T \~QUARTUS_CREATED_ADC1~~eoc\ $end
$var wire 1 U \~QUARTUS_CREATED_ADC2~~eoc\ $end
$var wire 1 V \Q2~output_o\ $end
$var wire 1 W \D2~output_o\ $end
$var wire 1 X \Q1~output_o\ $end
$var wire 1 Y \D1~output_o\ $end
$var wire 1 Z \Q0~output_o\ $end
$var wire 1 [ \D0~output_o\ $end
$var wire 1 \ \TS~output_o\ $end
$var wire 1 ] \F~output_o\ $end
$var wire 1 ^ \CLK~input_o\ $end
$var wire 1 _ \CLK~inputclkctrl_outclk\ $end
$var wire 1 ` \inst6~0_combout\ $end
$var wire 1 a \Start_L~input_o\ $end
$var wire 1 b \Start_L~inputclkctrl_outclk\ $end
$var wire 1 c \inst6~q\ $end
$var wire 1 d \inst4|D1~0_combout\ $end
$var wire 1 e \inst5~q\ $end
$var wire 1 f \inst4|D2~0_combout\ $end
$var wire 1 g \inst~q\ $end
$var wire 1 h \inst4|TS~0_combout\ $end
$var wire 1 i \A_L~input_o\ $end
$var wire 1 j \inst4|F~0_combout\ $end
$var wire 1 k \inst4|ALT_INV_F~0_combout\ $end
$var wire 1 l \ALT_INV_inst6~q\ $end
$upscope $end
$upscope $end
$enddefinitions $end
#0
$dumpvars
0!
0"
1#
0$
0%
1&
0'
0(
0)
1*
0+
0,
1-
x.
1/
10
11
12
13
14
05
16
07
08
09
0:
0;
0<
1=
0>
1?
0R
zS
zT
zU
0V
0W
0X
0Y
0Z
1[
0\
1]
0^
0_
1`
1a
1b
0c
0d
0e
0f
0g
0h
0i
0j
1k
1l
1N
1O
1P
0Q
1J
1K
1L
1M
0@
0A
0B
0C
0D
0E
0F
0G
0H
0I
$end
#10000
1"
17
1^
1Q
1_
1c
0l
1Z
0`
1d
0[
1<
1Y
0=
1'
1;
0#
1$
#20000
0"
07
0^
0Q
0_
#30000
1"
17
1^
1Q
1_
0c
1e
1l
1X
0Z
1j
1`
1[
0k
1:
0<
1=
1(
0'
0]
1#
0?
0&
#40000
0"
07
0^
0Q
0_
#50000
1"
17
1^
1Q
1_
1c
0l
1Z
0`
0d
1f
1h
0[
1<
1\
1W
0Y
0=
1'
1>
18
0;
0#
1+
1%
0$
#60000
0"
07
0^
0Q
0_
#70000
1"
17
1^
1Q
1_
0c
0e
1g
1l
1V
0X
0Z
1`
0h
1[
15
0:
0<
0\
1=
1)
0(
0'
0>
1#
0+
#80000
0"
07
0^
0Q
0_
#90000
1"
17
1^
1Q
1_
1c
0l
1Z
0`
1d
0[
1<
1Y
0=
1'
1;
0#
1$
#100000
0"
07
0^
0Q
0_
#110000
1"
17
1^
1Q
1_
0c
1e
1l
1X
0Z
1`
1[
1:
0<
1=
1(
0'
1#
#120000
0"
07
0^
0Q
0_
#130000
1"
17
1^
1Q
1_
1c
0l
1Z
0`
0d
0f
1h
0[
1<
1\
0W
0Y
0=
1'
1>
08
0;
0#
1+
0%
0$
#140000
0"
07
0^
0Q
0_
#150000
1"
17
1^
1Q
1_
0c
0e
0g
1l
0V
0X
0Z
0j
1`
0h
1[
1k
05
0:
0<
0\
1=
0)
0(
0'
1]
0>
1#
1?
0+
1&
#160000
0"
07
0^
0Q
0_
#170000
1"
17
1^
1Q
1_
1c
0l
1Z
0`
1d
0[
1<
1Y
0=
1'
1;
0#
1$
#180000
0"
07
0^
0Q
0_
#190000
1"
17
1^
1Q
1_
0c
1e
1l
1X
0Z
1j
1`
1[
0k
1:
0<
1=
1(
0'
0]
1#
0?
0&
#200000
0"
07
0^
0Q
0_
#210000
1"
17
1^
1Q
1_
1c
0l
1Z
0`
0d
1f
1h
0[
1<
1\
1W
0Y
0=
1'
1>
18
0;
0#
1+
1%
0$
#220000
0"
07
0^
0Q
0_
#230000
1"
17
1^
1Q
1_
0c
0e
1g
1l
1V
0X
0Z
1`
0h
1[
15
0:
0<
0\
1=
1)
0(
0'
0>
1#
0+
#240000
0"
07
0^
0Q
0_
#250000
1"
17
1^
1Q
1_
1c
0l
1Z
0`
1d
0[
1<
1Y
0=
1'
1;
0#
1$
#260000
0"
07
0^
0Q
0_
#270000
1"
17
1^
1Q
1_
0c
1e
1l
1X
0Z
1`
1[
1:
0<
1=
1(
0'
1#
#280000
0"
07
0^
0Q
0_
#290000
1"
17
1^
1Q
1_
1c
0l
1Z
0`
0d
0f
1h
0[
1<
1\
0W
0Y
0=
1'
1>
08
0;
0#
1+
0%
0$
#300000
0"
07
0^
0Q
0_
#310000
1"
17
1^
1Q
1_
0c
0e
0g
1l
0V
0X
0Z
0j
1`
0h
1[
1k
05
0:
0<
0\
1=
0)
0(
0'
1]
0>
1#
1?
0+
1&
#320000
0"
07
0^
0Q
0_
#330000
1"
17
1^
1Q
1_
1c
0l
1Z
0`
1d
0[
1<
1Y
0=
1'
1;
0#
1$
#340000
0"
07
0^
0Q
0_
#350000
1"
17
1^
1Q
1_
0c
1e
1l
1X
0Z
1j
1`
1[
0k
1:
0<
1=
1(
0'
0]
1#
0?
0&
#360000
0"
07
0^
0Q
0_
#370000
1"
17
1^
1Q
1_
1c
0l
1Z
0`
0d
1f
1h
0[
1<
1\
1W
0Y
0=
1'
1>
18
0;
0#
1+
1%
0$
#380000
0"
07
0^
0Q
0_
#390000
1"
17
1^
1Q
1_
0c
0e
1g
1l
1V
0X
0Z
1`
0h
1[
15
0:
0<
0\
1=
1)
0(
0'
0>
1#
0+
#400000
0"
07
0^
0Q
0_
#410000
1"
17
1^
1Q
1_
1c
0l
1Z
0`
1d
0[
1<
1Y
0=
1'
1;
0#
1$
#420000
0"
07
0^
0Q
0_
#430000
1"
17
1^
1Q
1_
0c
1e
1l
1X
0Z
1`
1[
1:
0<
1=
1(
0'
1#
#440000
0"
07
0^
0Q
0_
#450000
1"
17
1^
1Q
1_
1c
0l
1Z
0`
0d
0f
1h
0[
1<
1\
0W
0Y
0=
1'
1>
08
0;
0#
1+
0%
0$
#460000
0"
07
0^
0Q
0_
#470000
1"
17
1^
1Q
1_
0c
0e
0g
1l
0V
0X
0Z
0j
1`
0h
1[
1k
05
0:
0<
0\
1=
0)
0(
0'
1]
0>
1#
1?
0+
1&
#480000
0"
07
0^
0Q
0_
#490000
1"
17
1^
1Q
1_
1c
0l
1Z
0`
1d
0[
1<
1Y
0=
1'
1;
0#
1$
#500000
0"
07
0^
0Q
0_
#510000
1"
17
1^
1Q
1_
0c
1e
1l
1X
0Z
1j
1`
1[
0k
1:
0<
1=
1(
0'
0]
1#
0?
0&
#520000
0"
07
0^
0Q
0_
#530000
1"
17
1^
1Q
1_
1c
0l
1Z
0`
0d
1f
1h
0[
1<
1\
1W
0Y
0=
1'
1>
18
0;
0#
1+
1%
0$
#540000
0"
07
0^
0Q
0_
#550000
1"
17
1^
1Q
1_
0c
0e
1g
1l
1V
0X
0Z
1`
0h
1[
15
0:
0<
0\
1=
1)
0(
0'
0>
1#
0+
#560000
0"
07
0^
0Q
0_
#570000
1"
17
1^
1Q
1_
1c
0l
1Z
0`
1d
0[
1<
1Y
0=
1'
1;
0#
1$
#580000
0"
07
0^
0Q
0_
#590000
1"
17
1^
1Q
1_
0c
1e
1l
1X
0Z
1`
1[
1:
0<
1=
1(
0'
1#
#600000
0"
07
0^
0Q
0_
#610000
1"
17
1^
1Q
1_
1c
0l
1Z
0`
0d
0f
1h
0[
1<
1\
0W
0Y
0=
1'
1>
08
0;
0#
1+
0%
0$
#620000
0"
07
0^
0Q
0_
#630000
1"
17
1^
1Q
1_
0c
0e
0g
1l
0V
0X
0Z
0j
1`
0h
1[
1k
05
0:
0<
0\
1=
0)
0(
0'
1]
0>
1#
1?
0+
1&
#640000
0"
07
0^
0Q
0_
#650000
1"
17
1^
1Q
1_
1c
0l
1Z
0`
1d
0[
1<
1Y
0=
1'
1;
0#
1$
#660000
0"
07
0^
0Q
0_
#670000
1"
17
1^
1Q
1_
0c
1e
1l
1X
0Z
1j
1`
1[
0k
1:
0<
1=
1(
0'
0]
1#
0?
0&
#680000
0"
07
0^
0Q
0_
#690000
1"
17
1^
1Q
1_
1c
0l
1Z
0`
0d
1f
1h
0[
1<
1\
1W
0Y
0=
1'
1>
18
0;
0#
1+
1%
0$
#700000
0"
07
0^
0Q
0_
#710000
1"
17
1^
1Q
1_
0c
0e
1g
1l
1V
0X
0Z
1`
0h
1[
15
0:
0<
0\
1=
1)
0(
0'
0>
1#
0+
#720000
0"
07
0^
0Q
0_
#730000
1"
17
1^
1Q
1_
1c
0l
1Z
0`
1d
0[
1<
1Y
0=
1'
1;
0#
1$
#740000
0"
07
0^
0Q
0_
#750000
1"
17
1^
1Q
1_
0c
1e
1l
1X
0Z
1`
1[
1:
0<
1=
1(
0'
1#
#760000
0"
07
0^
0Q
0_
#770000
1"
17
1^
1Q
1_
1c
0l
1Z
0`
0d
0f
1h
0[
1<
1\
0W
0Y
0=
1'
1>
08
0;
0#
1+
0%
0$
#780000
0"
07
0^
0Q
0_
#790000
1"
17
1^
1Q
1_
0c
0e
0g
1l
0V
0X
0Z
0j
1`
0h
1[
1k
05
0:
0<
0\
1=
0)
0(
0'
1]
0>
1#
1?
0+
1&
#800000
0"
07
0^
0Q
0_
#810000
1"
17
1^
1Q
1_
1c
0l
1Z
0`
1d
0[
1<
1Y
0=
1'
1;
0#
1$
#820000
0"
07
0^
0Q
0_
#830000
1"
17
1^
1Q
1_
0c
1e
1l
1X
0Z
1j
1`
1[
0k
1:
0<
1=
1(
0'
0]
1#
0?
0&
#840000
0"
07
0^
0Q
0_
#850000
1"
17
1^
1Q
1_
1c
0l
1Z
0`
0d
1f
1h
0[
1<
1\
1W
0Y
0=
1'
1>
18
0;
0#
1+
1%
0$
#860000
0"
07
0^
0Q
0_
#870000
1"
17
1^
1Q
1_
0c
0e
1g
1l
1V
0X
0Z
1`
0h
1[
15
0:
0<
0\
1=
1)
0(
0'
0>
1#
0+
#880000
0"
07
0^
0Q
0_
#890000
1"
17
1^
1Q
1_
1c
0l
1Z
0`
1d
0[
1<
1Y
0=
1'
1;
0#
1$
#900000
0"
07
0^
0Q
0_
#910000
1"
17
1^
1Q
1_
0c
1e
1l
1X
0Z
1`
1[
1:
0<
1=
1(
0'
1#
#920000
0"
07
0^
0Q
0_
#930000
1"
17
1^
1Q
1_
1c
0l
1Z
0`
0d
0f
1h
0[
1<
1\
0W
0Y
0=
1'
1>
08
0;
0#
1+
0%
0$
#940000
0"
07
0^
0Q
0_
#950000
1"
17
1^
1Q
1_
0c
0e
0g
1l
0V
0X
0Z
0j
1`
0h
1[
1k
05
0:
0<
0\
1=
0)
0(
0'
1]
0>
1#
1?
0+
1&
#960000
0"
07
0^
0Q
0_
#970000
1"
17
1^
1Q
1_
1c
0l
1Z
0`
1d
0[
1<
1Y
0=
1'
1;
0#
1$
#980000
0"
07
0^
0Q
0_
#990000
1"
17
1^
1Q
1_
0c
1e
1l
1X
0Z
1j
1`
1[
0k
1:
0<
1=
1(
0'
0]
1#
0?
0&
