Quartus/Quiz3/simulation/qsim/Quiz3.msim.vcd
$comment
	File created using the following command:
		vcd file Quiz3.msim.vcd -direction
$end
$date
	Thu Feb 27 19:14:34 2025
$end
$version
	ModelSim Version 10.5b
$end
$timescale
	1ps
$end

$scope module Quiz3_vlg_vec_tst $end
$var reg 1 ! CLK $end
$var reg 1 " Start_L $end
$var wire 1 # Q0 $end
$var wire 1 $ Q1 $end
$var wire 1 % Q2 $end

$scope module i1 $end
$var wire 1 & gnd $end
$var wire 1 ' vcc $end
$var wire 1 ( unknown $end
$var tri1 1 ) devclrn $end
$var tri1 1 * devpor $end
$var tri1 1 + devoe $end
$var wire 1 , Q1~output_o $end
$var wire 1 - Q0~output_o $end
$var wire 1 . Q2~output_o $end
$var wire 1 / CLK~input_o $end
$var wire 1 0 inst10~0_combout $end
$var wire 1 1 Start_L~input_o $end
$var wire 1 2 inst10~q $end
$var wire 1 3 inst11~combout $end
$var wire 1 4 inst5~q $end
$var wire 1 5 inst8~combout $end
$var wire 1 6 inst4~q $end
$upscope $end
$upscope $end
$enddefinitions $end
#0
$dumpvars
0!
0"
0#
0$
0%
0&
1'
x(
1)
1*
1+
0,
0-
0.
0/
10
01
02
03
04
15
06
$end
#25000
1"
1!
11
1/
16
12
1.
1,
1$
1%
00
#50000
0!
0/
#75000
1!
1/
02
0.
0%
10
#100000
0!
0/
#125000
1!
1/
12
1.
1%
00
#150000
0!
0/
#175000
1!
1/
02
0.
0%
10
#200000
0!
0/
#225000
1!
1/
12
1.
1%
00
#250000
0!
0/
#275000
1!
1/
02
0.
0%
10
#300000
0!
0/
#325000
1!
1/
12
1.
1%
00
#350000
0!
0/
#375000
1!
1/
02
0.
0%
10
#400000
0!
0/
#425000
1!
1/
12
1.
1%
00
#450000
0!
0/
#475000
1!
1/
02
0.
0%
10
#500000
0!
0/
#525000
1!
1/
12
1.
1%
00
#550000
0!
0/
#575000
1!
1/
02
0.
0%
10
#600000
0!
0/
#625000
1!
1/
12
1.
1%
00
#650000
0!
0/
#675000
1!
1/
02
0.
0%
10
#700000
0!
0/
#725000
1!
1/
12
1.
1%
00
#750000
0!
0/
#775000
1!
1/
02
0.
0%
10
#800000
0!
0/
#825000
1!
1/
12
1.
1%
00
#850000
0!
0/
#875000
1!
1/
02
0.
0%
10
#900000
0!
0/
#925000
1!
1/
12
1.
1%
00
#950000
0!
0/
#975000
1!
1/
02
0.
0%
10
#1000000
0!
0/
#1025000
1!
1/
12
1.
1%
00
#1050000
0!
0/
#1075000
1!
1/
02
0.
0%
10
#1100000
0!
0/
#1125000
1!
1/
12
1.
1%
00
#1150000
0!
0/
#1175000
1!
1/
02
0.
0%
10
