Quartus/Lab3/Lab3_2bit_JK_T/simulation/qsim/Lab3_2bit_JK_T.msim.vcd
$comment
	File created using the following command:
		vcd file Lab3_2bit_JK_T.msim.vcd -direction
$end
$date
	Thu Feb 27 17:00:57 2025
$end
$version
	ModelSim Version 10.5b
$end
$timescale
	1ps
$end

$scope module Lab3_2bit_JK_T_vlg_vec_tst $end
$var reg 1 ! CLK $end
$var reg 1 " Start_L $end
$var wire 1 # Q0 $end
$var wire 1 $ Q1 $end

$scope module i1 $end
$var wire 1 % gnd $end
$var wire 1 & vcc $end
$var wire 1 ' unknown $end
$var tri1 1 ( devclrn $end
$var tri1 1 ) devpor $end
$var tri1 1 * devoe $end
$var wire 1 + ~QUARTUS_CREATED_GND~I_combout $end
$var wire 1 , ~QUARTUS_CREATED_UNVM~~busy $end
$var wire 1 - ~QUARTUS_CREATED_ADC1~~eoc $end
$var wire 1 . ~QUARTUS_CREATED_ADC2~~eoc $end
$var wire 1 / Q1~output_o $end
$var wire 1 0 Q0~output_o $end
$var wire 1 1 CLK~input_o $end
$var wire 1 2 CLK~inputclkctrl_outclk $end
$var wire 1 3 inst3~0_combout $end
$var wire 1 4 Start_L~input_o $end
$var wire 1 5 Start_L~inputclkctrl_outclk $end
$var wire 1 6 inst3~q $end
$var wire 1 7 inst2~feeder_combout $end
$var wire 1 8 inst2~q $end
$upscope $end
$upscope $end
$enddefinitions $end
#0
$dumpvars
0!
0"
0#
0$
0%
1&
x'
1(
1)
1*
0+
z,
z-
z.
0/
00
01
02
13
04
05
06
07
08
$end
#25000
1"
1!
11
14
15
12
16
10
1#
17
#50000
0!
01
02
#75000
1!
11
12
18
1/
1$
03
#100000
0!
01
02
#125000
1!
11
12
06
00
0#
07
#150000
0!
01
02
#175000
1!
11
12
08
0/
0$
13
#200000
0!
01
02
#225000
1!
11
12
16
10
1#
17
#250000
0!
01
02
#275000
1!
11
12
18
1/
1$
03
#300000
0!
01
02
#325000
1!
11
12
06
00
0#
07
#350000
0!
01
02
#375000
1!
11
12
08
0/
0$
13
#400000
0!
01
02
#425000
1!
11
12
16
10
1#
17
#450000
0!
01
02
#475000
1!
11
12
18
1/
1$
03
#500000
0!
01
02
#525000
1!
11
12
06
00
0#
07
#550000
0!
01
02
#575000
1!
11
12
08
0/
0$
13
#600000
0!
01
02
#625000
1!
11
12
16
10
1#
17
#650000
0!
01
02
#675000
1!
11
12
18
1/
1$
03
#700000
0!
01
02
#725000
1!
11
12
06
00
0#
07
#750000
0!
01
02
#775000
1!
11
12
08
0/
0$
13
#800000
0!
01
02
#825000
1!
11
12
16
10
1#
17
#850000
0!
01
02
#875000
1!
11
12
18
1/
1$
03
#900000
0!
01
02
#925000
1!
11
12
06
00
0#
07
#950000
0!
01
02
#975000
1!
11
12
08
0/
0$
13
#1000000
0!
01
02
#1025000
1!
11
12
16
10
1#
17
#1050000
0!
01
02
#1075000
1!
11
12
18
1/
1$
03
#1100000
0!
01
02
#1125000
1!
11
12
06
00
0#
07
#1150000
0!
01
02
#1175000
1!
11
12
08
0/
0$
13
