Quartus/Lab2/lab2_4inMUX/simulation/qsim/lab2_4inMUX.msim.vcd
$comment
	File created using the following command:
		vcd file lab2_4inMUX.msim.vcd -direction
$end
$date
	Thu Feb 13 14:23:17 2025
$end
$version
	ModelSim Version 10.5b
$end
$timescale
	1ps
$end

$scope module lab2_4inMUX_vlg_vec_tst $end
$var reg 1 ! D0_L $end
$var reg 1 " D1 $end
$var reg 1 # D2_L $end
$var reg 1 $ D3 $end
$var reg 1 % S0 $end
$var reg 1 & S1 $end
$var wire 1 ' Y $end

$scope module i1 $end
$var wire 1 ( gnd $end
$var wire 1 ) vcc $end
$var wire 1 * unknown $end
$var tri1 1 + devclrn $end
$var tri1 1 , devpor $end
$var tri1 1 - devoe $end
$var wire 1 . ~QUARTUS_CREATED_GND~I_combout $end
$var wire 1 / ~QUARTUS_CREATED_UNVM~~busy $end
$var wire 1 0 ~QUARTUS_CREATED_ADC1~~eoc $end
$var wire 1 1 ~QUARTUS_CREATED_ADC2~~eoc $end
$var wire 1 2 Y~output_o $end
$var wire 1 3 D2_L~input_o $end
$var wire 1 4 S0~input_o $end
$var wire 1 5 D3~input_o $end
$var wire 1 6 D1~input_o $end
$var wire 1 7 D0_L~input_o $end
$var wire 1 8 S1~input_o $end
$var wire 1 9 inst4~0_combout $end
$var wire 1 : inst4~1_combout $end
$upscope $end
$upscope $end
$enddefinitions $end
#0
$dumpvars
0!
0"
0#
0$
0%
0&
0'
0(
1)
x*
1+
1,
1-
0.
z/
z0
z1
02
03
04
05
06
07
08
09
0:
$end
#25000
1!
1"
1#
1$
1%
1&
18
14
15
13
16
17
19
1:
12
1'
0:
02
0'
#50000
0!
0"
0#
0$
0%
0&
08
04
05
03
06
07
09
1:
12
1'
0:
02
0'
#75000
1!
1"
1#
1$
1%
1&
18
14
15
13
16
17
19
1:
12
1'
0:
02
0'
#100000
0!
0"
0#
0$
0%
0&
08
04
05
03
06
07
09
1:
12
1'
0:
02
0'
#125000
1!
1"
1#
1$
1%
1&
18
14
15
13
16
17
19
1:
12
1'
0:
02
0'
#150000
0!
0"
0#
0$
0%
0&
08
04
05
03
06
07
09
1:
12
1'
0:
02
0'
#175000
1!
1"
1#
1$
1%
1&
18
14
15
13
16
17
19
1:
12
1'
0:
02
0'
#200000
0!
0"
0#
0$
0%
0&
08
04
05
03
06
07
09
1:
12
1'
0:
02
0'
#225000
1!
1"
1#
1$
1%
1&
18
14
15
13
16
17
19
1:
12
1'
0:
02
0'
#250000
0!
0"
0#
0$
0%
0&
08
04
05
03
06
07
09
1:
12
1'
0:
02
0'
#275000
1!
1"
1#
1$
1%
1&
18
14
15
13
16
17
19
1:
12
1'
0:
02
0'
#300000
0!
0"
0#
0$
0%
0&
08
04
05
03
06
07
09
1:
12
1'
0:
02
0'
#325000
1!
1"
1#
1$
1%
1&
18
14
15
13
16
17
19
1:
12
1'
0:
02
0'
#350000
0!
0"
0#
0$
0%
0&
08
04
05
03
06
07
09
1:
12
1'
0:
02
0'
#375000
1!
1"
1#
1$
1%
1&
18
14
15
13
16
17
19
1:
12
1'
0:
02
0'
#400000
0!
0"
0#
0$
0%
0&
08
04
05
03
06
07
09
1:
12
1'
0:
02
0'
#425000
1!
1"
1#
1$
1%
1&
18
14
15
13
16
17
19
1:
12
1'
0:
02
0'
#450000
0!
0"
0#
0$
0%
0&
08
04
05
03
06
07
09
1:
12
1'
0:
02
0'
#475000
1!
1"
1#
1$
1%
1&
18
14
15
13
16
17
19
1:
12
1'
0:
02
0'
#500000
0!
0"
0#
0$
0%
0&
08
04
05
03
06
07
09
1:
12
1'
0:
02
0'
#525000
1!
1"
1#
1$
1%
1&
18
14
15
13
16
17
19
1:
12
1'
0:
02
0'
#550000
0!
0"
0#
0$
0%
0&
08
04
05
03
06
07
09
1:
12
1'
0:
02
0'
#575000
1!
1"
1#
1$
1%
1&
18
14
15
13
16
17
19
1:
12
1'
0:
02
0'
#600000
0!
0"
0#
0$
0%
0&
08
04
05
03
06
07
09
1:
12
1'
0:
02
0'
#625000
1!
1"
1#
1$
1%
1&
18
14
15
13
16
17
19
1:
12
1'
0:
02
0'
#650000
0!
0"
0#
0$
0%
0&
08
04
05
03
06
07
09
1:
12
1'
0:
02
0'
#675000
1!
1"
1#
1$
1%
1&
18
14
15
13
16
17
19
1:
12
1'
0:
02
0'
#700000
0!
0"
0#
0$
0%
0&
08
04
05
03
06
07
09
1:
12
1'
0:
02
0'
#725000
1!
1"
1#
1$
1%
1&
18
14
15
13
16
17
19
1:
12
1'
0:
02
0'
#750000
0!
0"
0#
0$
0%
0&
08
04
05
03
06
07
09
1:
12
1'
0:
02
0'
#775000
1!
1"
1#
1$
1%
1&
18
14
15
13
16
17
19
1:
12
1'
0:
02
0'
#800000
0!
0"
0#
0$
0%
0&
08
04
05
03
06
07
09
1:
12
1'
0:
02
0'
#825000
1!
1"
1#
1$
1%
1&
18
14
15
13
16
17
19
1:
12
1'
0:
02
0'
#850000
0!
0"
0#
0$
0%
0&
08
04
05
03
06
07
09
1:
12
1'
0:
02
0'
#875000
1!
1"
1#
1$
1%
1&
18
14
15
13
16
17
19
1:
12
1'
0:
02
0'
#900000
0!
0"
0#
0$
0%
0&
08
04
05
03
06
07
09
1:
12
1'
0:
02
0'
#925000
1!
1"
1#
1$
1%
1&
18
14
15
13
16
17
19
1:
12
1'
0:
02
0'
#950000
0!
0"
0#
0$
0%
0&
08
04
05
03
06
07
09
1:
12
1'
0:
02
0'
#975000
1!
1"
1#
1$
1%
1&
18
14
15
13
16
17
19
1:
12
1'
0:
02
0'
#1000000
0!
0"
0#
0$
0%
0&
08
04
05
03
06
07
09
1:
12
1'
0:
02
0'
#1025000
1!
1"
1#
1$
1%
1&
18
14
15
13
16
17
19
1:
12
1'
0:
02
0'
#1050000
0!
0"
0#
0$
0%
0&
08
04
05
03
06
07
09
1:
12
1'
0:
02
0'
#1075000
1!
1"
1#
1$
1%
1&
18
14
15
13
16
17
19
1:
12
1'
0:
02
0'
#1100000
0!
0"
0#
0$
0%
0&
08
04
05
03
06
07
09
1:
12
1'
0:
02
0'
#1125000
1!
1"
1#
1$
1%
1&
18
14
15
13
16
17
19
1:
12
1'
0:
02
0'
#1150000
0!
0"
0#
0$
0%
0&
08
04
05
03
06
07
09
1:
12
1'
0:
02
0'
#1175000
1!
1"
1#
1$
1%
1&
18
14
15
13
16
17
19
1:
12
1'
0:
02
0'
