Quartus/Lab3/Lab3_2bit_Cnt/Lab3_2bit_Cnt_restored/Lab3/Lab3_2bit_Cnt/simulation/qsim/Lab3_2bit_Cnt.msim.vcd
$comment
	File created using the following command:
		vcd file Lab3_2bit_Cnt.msim.vcd -direction
$end
$date
	Mon Mar 03 01:17:50 2025
$end
$version
	ModelSim Version 10.5b
$end
$timescale
	1ps
$end

$scope module Lab3_2bit_Cnt_vlg_vec_tst $end
$var reg 1 ! CLK $end
$var reg 1 " Start_L $end
$var wire 1 # A $end
$var wire 1 $ B $end
$var wire 1 % C $end
$var wire 1 & D $end
$var wire 1 ' E $end
$var wire 1 ( F $end
$var wire 1 ) G $end
$var wire 1 * Q0 $end
$var wire 1 + Q1 $end
$var wire 1 , X [3] $end
$var wire 1 - X [2] $end
$var wire 1 . X [1] $end
$var wire 1 / X [0] $end

$scope module i1 $end
$var wire 1 0 gnd $end
$var wire 1 1 vcc $end
$var wire 1 2 unknown $end
$var tri1 1 3 devclrn $end
$var tri1 1 4 devpor $end
$var tri1 1 5 devoe $end
$var wire 1 6 ~QUARTUS_CREATED_GND~I_combout $end
$var wire 1 7 ~QUARTUS_CREATED_UNVM~~busy $end
$var wire 1 8 ~QUARTUS_CREATED_ADC1~~eoc $end
$var wire 1 9 ~QUARTUS_CREATED_ADC2~~eoc $end
$var wire 1 : Q1~output_o $end
$var wire 1 ; Q0~output_o $end
$var wire 1 < A~output_o $end
$var wire 1 = X[3]~output_o $end
$var wire 1 > X[2]~output_o $end
$var wire 1 ? X[1]~output_o $end
$var wire 1 @ X[0]~output_o $end
$var wire 1 A B~output_o $end
$var wire 1 B C~output_o $end
$var wire 1 C D~output_o $end
$var wire 1 D E~output_o $end
$var wire 1 E F~output_o $end
$var wire 1 F G~output_o $end
$var wire 1 G CLK~input_o $end
$var wire 1 H CLK~inputclkctrl_outclk $end
$var wire 1 I inst6~feeder_combout $end
$var wire 1 J Start_L~input_o $end
$var wire 1 K inst6~q $end
$var wire 1 L inst5~0_combout $end
$var wire 1 M inst5~q $end
$var wire 1 N inst1|inst40~combout $end
$var wire 1 O inst1|boom3~combout $end
$var wire 1 P inst1|inst4~combout $end
$upscope $end
$upscope $end
$enddefinitions $end
#0
$dumpvars
0!
0"
1#
0$
0%
1&
1'
1(
1)
1*
0+
1/
0.
0-
0,
00
11
x2
13
14
15
06
z7
z8
z9
0:
1;
1<
0=
0>
0?
1@
0A
0B
1C
1D
1E
1F
0G
0H
0I
0J
0K
1L
0M
0N
1O
1P
$end
#25000
1"
1!
1G
1J
1H
1M
0F
1:
1?
1N
1.
1+
0)
1I
0C
0<
0#
0&
#50000
0!
0G
0H
#75000
1!
1G
1H
1K
0D
0@
0;
0O
0*
0/
0'
0L
1B
1%
#100000
0!
0G
0H
#125000
1!
1G
1H
0M
1F
0:
0?
1O
0.
0+
1)
0P
0I
0E
0B
0%
0(
#150000
0!
0G
0H
#175000
1!
1G
1H
0K
1D
1@
1;
0N
1*
1/
1'
1P
1L
1E
1C
1<
1#
1&
1(
#200000
0!
0G
0H
#225000
1!
1G
1H
1M
0F
1:
1?
1N
1.
1+
0)
1I
0C
0<
0#
0&
#250000
0!
0G
0H
#275000
1!
1G
1H
1K
0D
0@
0;
0O
0*
0/
0'
0L
1B
1%
#300000
0!
0G
0H
#325000
1!
1G
1H
0M
1F
0:
0?
1O
0.
0+
1)
0P
0I
0E
0B
0%
0(
#350000
0!
0G
0H
#375000
1!
1G
1H
0K
1D
1@
1;
0N
1*
1/
1'
1P
1L
1E
1C
1<
1#
1&
1(
#400000
0!
0G
0H
#425000
1!
1G
1H
1M
0F
1:
1?
1N
1.
1+
0)
1I
0C
0<
0#
0&
#450000
0!
0G
0H
#475000
1!
1G
1H
1K
0D
0@
0;
0O
0*
0/
0'
0L
1B
1%
#500000
0!
0G
0H
#525000
1!
1G
1H
0M
1F
0:
0?
1O
0.
0+
1)
0P
0I
0E
0B
0%
0(
#550000
0!
0G
0H
#575000
1!
1G
1H
0K
1D
1@
1;
0N
1*
1/
1'
1P
1L
1E
1C
1<
1#
1&
1(
#600000
0!
0G
0H
#625000
1!
1G
1H
1M
0F
1:
1?
1N
1.
1+
0)
1I
0C
0<
0#
0&
#650000
0!
0G
0H
#675000
1!
1G
1H
1K
0D
0@
0;
0O
0*
0/
0'
0L
1B
1%
#700000
0!
0G
0H
#725000
1!
1G
1H
0M
1F
0:
0?
1O
0.
0+
1)
0P
0I
0E
0B
0%
0(
#750000
0!
0G
0H
#775000
1!
1G
1H
0K
1D
1@
1;
0N
1*
1/
1'
1P
1L
1E
1C
1<
1#
1&
1(
#800000
0!
0G
0H
#825000
1!
1G
1H
1M
0F
1:
1?
1N
1.
1+
0)
1I
0C
0<
0#
0&
#850000
0!
0G
0H
#875000
1!
1G
1H
1K
0D
0@
0;
0O
0*
0/
0'
0L
1B
1%
#900000
0!
0G
0H
#925000
1!
1G
1H
0M
1F
0:
0?
1O
0.
0+
1)
0P
0I
0E
0B
0%
0(
#950000
0!
0G
0H
#975000
1!
1G
1H
0K
1D
1@
1;
0N
1*
1/
1'
1P
1L
1E
1C
1<
1#
1&
1(
#1000000
0!
0G
0H
#1025000
1!
1G
1H
1M
0F
1:
1?
1N
1.
1+
0)
1I
0C
0<
0#
0&
#1050000
0!
0G
0H
#1075000
1!
1G
1H
1K
0D
0@
0;
0O
0*
0/
0'
0L
1B
1%
#1100000
0!
0G
0H
#1125000
1!
1G
1H
0M
1F
0:
0?
1O
0.
0+
1)
0P
0I
0E
0B
0%
0(
#1150000
0!
0G
0H
#1175000
1!
1G
1H
0K
1D
1@
1;
0N
1*
1/
1'
1P
1L
1E
1C
1<
1#
1&
1(
