Quartus/hw1_tutorial/simulation/qsim/hw1_tutorial.msim.vcd
$comment
	File created using the following command:
		vcd file hw1_tutorial.msim.vcd -direction
$end
$date
	Sun Jan 26 11:36:26 2025
$end
$version
	ModelSim Version 10.5b
$end
$timescale
	1ps
$end

$scope module hw1_tutorial_vlg_vec_tst $end
$var reg 1 ! A $end
$var reg 1 " B $end
$var reg 1 # C $end
$var wire 1 $ Y $end

$scope module i1 $end
$var wire 1 % gnd $end
$var wire 1 & vcc $end
$var wire 1 ' unknown $end
$var tri1 1 ( devclrn $end
$var tri1 1 ) devpor $end
$var tri1 1 * devoe $end
$var wire 1 + ~QUARTUS_CREATED_GND~I_combout $end
$var wire 1 , ~QUARTUS_CREATED_UNVM~~busy $end
$var wire 1 - Y~output_o $end
$var wire 1 . A~input_o $end
$var wire 1 / C~input_o $end
$var wire 1 0 B~input_o $end
$var wire 1 1 inst1~combout $end
$upscope $end
$upscope $end
$enddefinitions $end
#0
$dumpvars
0!
0"
0#
1$
0%
1&
x'
1(
1)
1*
0+
z,
1-
0.
0/
00
11
$end
#50000
1#
1/
01
0-
0$
#100000
1"
0#
0/
10
11
1-
1$
#150000
1#
1/
01
0-
0$
#200000
1!
0"
0#
0/
00
1.
11
1-
1$
#250000
1#
1/
#300000
1"
0#
0/
10
#350000
1#
1/
01
0-
0$
#400000
0!
0"
0#
0/
00
0.
11
1-
1$
#450000
1#
1/
01
0-
0$
#500000
1"
0#
0/
10
11
1-
1$
#550000
1#
1/
01
0-
0$
#600000
1!
0"
0#
0/
00
1.
11
1-
1$
#650000
1#
1/
#700000
1"
0#
0/
10
#750000
1#
1/
01
0-
0$
#800000
0!
0"
0#
0/
00
0.
11
1-
1$
#850000
1#
1/
01
0-
0$
#900000
1"
0#
0/
10
11
1-
1$
#950000
1#
1/
01
0-
0$
#1000000
1!
0"
0#
0/
00
1.
11
1-
1$
#1050000
1#
1/
#1100000
1"
0#
0/
10
#1150000
1#
1/
01
0-
0$
