Quartus/Lab1/Lab1d/simulation/qsim/Lab1d.msim.vcd
$comment
	File created using the following command:
		vcd file Lab1d.msim.vcd -direction
$end
$date
	Thu Feb 06 14:22:36 2025
$end
$version
	ModelSim Version 10.5b
$end
$timescale
	1ps
$end

$scope module Lab1d_vlg_vec_tst $end
$var reg 1 ! A $end
$var reg 1 " B_L $end
$var reg 1 # C $end
$var reg 1 $ D_L $end
$var wire 1 % Y_L $end
$var wire 1 & Z $end

$scope module i1 $end
$var wire 1 ' gnd $end
$var wire 1 ( vcc $end
$var wire 1 ) unknown $end
$var tri1 1 * devclrn $end
$var tri1 1 + devpor $end
$var tri1 1 , devoe $end
$var wire 1 - A~combout $end
$var wire 1 . C~combout $end
$var wire 1 / B_L~combout $end
$var wire 1 0 D_L~combout $end
$var wire 1 1 inst~combout $end
$var wire 1 2 inst5~combout $end
$upscope $end
$upscope $end
$enddefinitions $end
#0
$dumpvars
0!
0"
0#
0$
x%
x&
0'
1(
x)
1*
1+
1,
x-
x.
x/
x0
x1
x2
$end
#1132
0-
0.
0/
00
#6107
11
#6112
02
#10158
0&
#10186
0%
#25000
1$
#26132
10
#50000
1#
0$
#51132
00
1.
#75000
1$
#76132
10
#80393
12
#84439
1&
#100000
1"
0#
0$
#101132
00
0.
1/
#105400
01
#109479
1%
#125000
1$
#126132
10
#150000
1#
0$
#151132
00
1.
#175000
1$
#176132
10
#180400
11
#184479
0%
#200000
1!
0"
0#
0$
#201132
00
0.
0/
1-
#205400
01
#209479
1%
#225000
1$
#226132
10
#250000
1#
0$
#251132
00
1.
#275000
1$
#276132
10
#280400
11
#284479
0%
#300000
1"
0#
0$
#301132
00
0.
1/
#305400
01
#309479
1%
#325000
1$
#326132
10
#350000
1#
0$
#351132
00
1.
#375000
1$
#376132
10
#380400
11
#384479
0%
#400000
0!
0"
0#
0$
#401132
00
0.
0/
0-
#406112
02
#410158
0&
#425000
1$
#426132
10
#450000
1#
0$
#451132
00
1.
#475000
1$
#476132
10
#480393
12
#484439
1&
#500000
1"
0#
0$
#501132
00
0.
1/
#505400
01
#509479
1%
#525000
1$
#526132
10
#550000
1#
0$
#551132
00
1.
#575000
1$
#576132
10
#580400
11
#584479
0%
#600000
1!
0"
0#
0$
#601132
00
0.
0/
1-
#605400
01
#609479
1%
#625000
1$
#626132
10
#650000
1#
0$
#651132
00
1.
#675000
1$
#676132
10
#680400
11
#684479
0%
#700000
1"
0#
0$
#701132
00
0.
1/
#705400
01
#709479
1%
#725000
1$
#726132
10
#750000
1#
0$
#751132
00
1.
#775000
1$
#776132
10
#780400
11
#784479
0%
#800000
0!
0"
0#
0$
#801132
00
0.
0/
0-
#806112
02
#810158
0&
#825000
1$
#826132
10
#850000
1#
0$
#851132
00
1.
#875000
1$
#876132
10
#880393
12
#884439
1&
#900000
1"
0#
0$
#901132
00
0.
1/
#905400
01
#909479
1%
#925000
1$
#926132
10
#950000
1#
0$
#951132
00
1.
#975000
1$
#976132
10
#980400
11
#984479
0%
#1000000
1!
0"
0#
0$
#1001132
00
0.
0/
1-
#1005400
01
#1009479
1%
#1025000
1$
#1026132
10
#1050000
1#
0$
#1051132
00
1.
#1075000
1$
#1076132
10
#1080400
11
#1084479
0%
#1100000
1"
0#
0$
#1101132
00
0.
1/
#1105400
01
#1109479
1%
#1125000
1$
#1126132
10
#1150000
1#
0$
#1151132
00
1.
#1175000
1$
#1176132
10
#1180400
11
#1184479
0%
